<?xml version="1.0"?>
<svg xmlns:rdf="http://www.w3.org/1999/02/22-rdf-syntax-ns#" xmlns="http://www.w3.org/2000/svg" xmlns:cc="http://web.resource.org/cc/" xmlns:xlink="http://www.w3.org/1999/xlink" xmlns:dc="http://purl.org/dc/elements/1.1/" xmlns:svg="http://www.w3.org/2000/svg" id="flower_market_cours_st_louis_xA0_Image_1_" xml:space="preserve" viewBox="0 0 200.64 117.36" version="1.1" x="0px" y="0px" enable-background="new 0 0 200.64 117.36">
<g clip-rule="evenodd" fill-rule="evenodd">
	<path d="m66 5.76h0.96c0.292 0.362-0.008 1.587-0.48 1.92 0.549 0.398 0.896 0.628 0.48 1.44-1.578-0.255-1.626-2.104-0.96-3.36z"/>
	<path d="m90.96 7.2h0.72c0.082 1.442-0.601 2.12-0.96 3.12 0.087 0.861 0.644 0.879 0.24 1.68-2.299-0.556-0.47-3.533 0-4.8z"/>
	<path d="m135.6 8.4c-0.688 0.047-1.31 0.03-1.2-0.72 0.46-0.467 1.47-0.251 1.2 0.72z"/>
	<path d="m138.24 9.36c1.174-0.078 4.519-2.18 6.24-0.96-0.839 1.822-3.406 3.125-5.52 2.88 1.088-0.991 3.008-1.151 4.079-2.16-2.419-0.842-4.575 1.746-6.72 1.2-0.026-1.306 1.476-1.084 1.92-1.92 0.86-0.231 0.47 1.079 0 0.96z"/>
	<path d="m161.76 9.36c0.115 0.756-0.737 0.543-0.48 1.44-3.247-0.607-4.203 1.077-6.479 1.44 0.387-2.309 3.968-2.516 6.239-2.16-1.321-1.475-4.202 0.454-5.279 0 0.82-1.985 4.17-1.363 6-0.72z"/>
	<path d="m77.28 19.2c-1.533-0.547-1.725-2.436-4.08-2.16-0.207-0.194-0.143-0.657-0.48-0.72 0.355-0.669 0.115-1.834 0.24-2.4 0.004-0.017 0.48 0.012 0.48 0-0.036-2.429-2.111-4.235-4.32-2.16-0.276-0.284-0.272-0.849-0.24-1.44-0.552 0.249-1.104 0.496-1.44 0.96-0.739-0.141-1.699-0.061-1.68-0.96 1.05-0.012 1.872-0.571 3.12-0.96 0.177 0.543 0.915 0.525 0.96 1.2 0.563-0.077 0.538-0.743 0.96-0.96 1.37 1.03 3.195 1.605 4.08 3.12-0.499 0.141-0.775 0.504-1.2 0.72 0.074 0.326 0.601 0.199 0.96 0.24 0.398-1.282 2.64-0.72 2.88-2.16 2.466 1.403-1.574 1.89-1.92 3.36-0.77 0.209-0.75-0.369-0.96-0.72-0.524 0.436-1.047 0.873-0.96 1.92 0.684 1.14 1.886 0.915 3.12 0.48-0.383 1.527 1.204 1.454 0.48 2.64z"/>
	<path d="m120 11.04c-1.437-0.343-3.109 2.815-4.319 0.48 1.56 0.209 3.34-2.411 4.32-0.48z"/>
	<path d="m86.4 19.44c-0.605 0.316 0.629 0.788 0.48 1.44-0.615 0.381-1.741-0.387-1.68-1.44-1.397-0.923-2.746-1.895-2.88-4.08 0.648 0.072 0.431 1.01 0.96 1.2 0.09-2.02-0.169-3.661 0.96-5.52 1.162 0.556-0.2 1.792-0.24 2.64 0.242 0.531 0.826-0.591 1.68-0.24 0.498 1.47-0.444 1.827 0 3.6-0.906 0.106-1.127-0.473-1.68-0.72v0.96c0.51 0.531 1.953 0.127 1.68 1.44 0.544-0.255 0.091-1.509 0.24-2.16 0.913-0.192 0.305 1.135 0.48 1.68 0.012 1.108 1.368 0.873 1.2 2.16-0.558-0.163-0.827-0.613-1.2-0.96z"/>
	<path d="m93.36 11.04h0.72c-0.193 1.153 1.031 0.889 0.96 1.92h2.16c-0.596 0.998-1.345 0.521-2.4 1.2 0.214-1.345-1.522-1.296-1.44-3.12z"/>
	<path d="m113.28 11.04c0.593 0.208 1.661-0.062 1.681 0.72-0.77-0.46-1.7 0.629-1.68-0.72z"/>
	<path d="m111.6 11.28c0.422 0.138 1.41-0.29 1.439 0.24-0.661 0.779-1.307 1.573-2.399 1.92-0.74-0.979 1.02-1.11 0.96-2.16z"/>
	<path d="m154.56 11.76c-0.891 1.989-1.806 3.954-3.36 5.28-0.245-1.646 1.572-3.199 2.16-4.8-2.266-0.463-4.174 2.664-6.24 2.4-0.143-1.263 1.128-1.113 1.92-1.44 1.55-0.956 3.25-2.525 5.52-1.44z"/>
	<path d="m86.64 12.48c0.658 0.005 0.57 1.132 0.24 1.44-0.658-0.005-0.57-1.132-0.24-1.44z"/>
	<path d="m91.2 18.24c-1.678 0.663-0.338-3.621-1.68-4.08 0.561-0.72 1.019-1.541 2.4-1.44 0.01 1.318-0.768 1.624-0.24 2.88h1.92c-0.529 0.591-0.4 1.84-1.44 1.92-0.199-0.678 0.338-0.622 0.24-1.2-0.035-0.535-0.604 0.312-1.2 0v1.92z"/>
	<path d="m51.36 13.44c1.476 0.364 2.258 1.422 2.64 2.88-1.446-0.394-1.975-1.705-2.64-2.88z"/>
	<path d="m97.92 13.44h0.72c0.047 0.688 0.03 1.31-0.72 1.2v-1.2z"/>
	<path d="m100.56 15.12c0.279-0.039 0.427 0.053 0.48 0.24-0.913 2.528-3.354 3.526-3.36 6.96-0.566 0.074-0.447 0.833-1.2 0.72 0.838-1.042 0.762-2.092 0.96-4.08 0.918-1.402 2.169-2.471 3.12-3.84z"/>
	<path d="m144.72 19.2c0.955 0.175 0.965 0.175 1.92 0-0.136-0.913-0.575-2.774 0-3.6 1.165 0.492 0.402 1.966 0.72 3.6-0.92-0.11-2.6 2.187-2.64 0z"/>
	<path d="m118.32 16.32c0.112 0.512-0.343 0.458-0.72 0.48 0.604 0.196 0.505 1.095 0.479 1.92-0.894-0.373-2.12-0.043-2.64-0.24 0.49-1.191 1.04-2.325 2.88-2.16z"/>
	<path d="m101.28 17.28c0.545 0.651 0.861 0.815 1.92 0.48 0.098 0.942 1.396 0.685 1.2 1.92-2.504-0.082-3.925 1.654-6 2.64-0.09 1.27-0.846 1.875-1.2 2.88-0.746 0.36-1.673 0.281-1.68-0.72 0.431-0.03 0.506 0.294 0.96 0.24 0.824-1.016 1.334-2.346 1.92-3.6 1.243-0.277 2.746-0.294 3.12-1.44 0.004-1.168-0.699-0.716-1.2-0.96-0.01-0.812 0.56-1.041 0.96-1.44z"/>
	<path d="m143.52 17.28c0.769 0.23 0.937 2.082 0.24 2.4-0.92 0.059-0.46-2.062-0.24-2.4z"/>
	<path d="m54.96 17.76c2.013 0.227 2.211 6.086-0.24 6-0.683-0.803 0.659-1.118 0.72-1.92 0.239-1.37-0.044-2.774-0.48-4.08z"/>
	<path d="m78.96 18.24c0.636 0.812-0.812 1.143-0.72 2.16-0.556 0.077-0.921-0.039-1.2-0.24 0.189-1.092 1.087-1.473 1.92-1.92z"/>
	<path d="m91.2 18.24c1.183-0.437 0.936 2.052 0 1.68v-1.68z"/>
	<path d="m150.72 18.48c1.015 0.617-1.233 1.475-0.96 2.88-1.83-0.666 0.16-2.571 0.96-2.88z"/>
	<path d="m133.44 18.72c0.907-0.206 0.85 1.074 0.48 1.44-0.431 0.03-0.507-0.294-0.96-0.24-0.21-0.766 0.38-0.742 0.48-1.2z"/>
	<path d="m75.6 19.68c0.557-0.077 0.921 0.039 1.2 0.24 0.062 0.783-0.285 1.155-0.96 1.2-0.006-0.233-0.293-0.187-0.48-0.24-0.098-0.578 0.438-0.522 0.24-1.2z"/>
	<path d="m142.56 20.4c0.495 0.244 0.457 1.327 0.479 2.16 0.025 0.901-0.383 2 0 2.88-1.198 0.413-0.337-1.098-0.479-1.68-0.29-1.195-1.38-2.052 0-3.36z"/>
	<path d="m60.72 26.4c-2.942-0.658-5.457-1.744-8.16-2.64-0.408 0.088-0.453-0.188-0.48-0.48 1.06-0.285 2.049 0.759 3.36 1.2 1.747 0.587 4.316 0.43 5.28 1.92z"/>
	<path d="m113.52 23.04c1.251-0.051 0.787 1.613 2.16 1.44 0.183 1.337 0.539 2.5 0.96 3.6-1.126 0.625-1.175-1.632-2.4-1.68 0.14-1.499-0.92-1.803-0.72-3.36z"/>
	<path d="m106.56 24c-0.05 1.217-0.493 1.671-0.48 2.4-1.74 0.19-0.85-2.761 0.48-2.4z"/>
	<path d="m141.6 24.96c-0.202 0.598-0.314 1.286-0.24 2.16 0.422-0.058 0.547-0.413 0.48-0.96 1.201 0.45 0.269 1.663 0.96 2.4-1.133 0.459-1.349-1.044-1.681 0-0.03-0.852-0.86-3.203 0.48-3.6z"/>
	<path d="m52.32 25.44c-1.327 1.028-0.24 3.208-1.44 4.08 0.225-1.615-0.785-4.465 1.44-4.08z"/>
	<path d="m138.48 26.16c0.388-0.068 0.413 0.227 0.72 0.24-0.313 1.829 0.489 3.317 0.24 4.8-0.477 0.122-0.549-1.324-0.96-0.48-0.01-1.481-0.74-3.313 0-4.56z"/>
	<path d="m146.4 28.56h0.72c-0.286 1.233 0.681 3.72-0.72 3.84-0.41-0.843 0.25-2.39 0-3.84z"/>
	<path d="m141.36 28.8c0.215 1.151 1.118 2.875 0.48 4.08-1.9-0.016-0.61-3.124-0.48-4.08z"/>
	<path d="m145.68 28.8c1.115 0.169 0.259 1.067 0.24 1.68-0.065 2.051 0.519 5.294-1.2 5.76-1.236-1.228 0.344-2.957 0.72-4.08-0.24-1.259-0.23-2.292 0.24-3.36z"/>
	<path d="m115.92 29.52c1.682 0.588 2.489 3.407 4.56 2.16-0.017 0.704-0.549 0.891-0.96 1.2-1.81-0.507-2.9-1.746-3.6-3.36z"/>
	<path d="m65.52 41.28c-2.226-0.974-5.437-0.963-7.2-2.4 1.578-0.106 3.138 0.545 4.8 0.96 2.758 0.689 5.759 1.807 8.88 2.4 4.024 0.766 6.455-0.729 9.84-2.4 2.482-1.225 4.533-2.575 6.48-3.36 0.545-2.476-0.23-5.072 1.2-6.48 0.273 1.994-0.129 3.012 0.24 5.28 0.014 0.946 0.979 0.941 0.96 1.92-1.269-0.1-2.419 0.062-3.36 0.48-3.596 1.598-6.862 3.612-10.32 5.04 0.653 0.627 1.812 0.749 2.64 1.2 3.475-1.565 5.795-4.285 9.12-6-2.503 2.537-5.636 4.444-8.64 6.48-2.174-0.652-4.399-1.521-6.96-1.68-0.667-0.042-1.5 0.322-2.16 0.24-1.526-0.189-3.79-1.171-6-1.44-2.649-0.322-5.578-0.033-7.2-1.92 2.256 0.863 5.067 1.173 7.68 1.68z"/>
	<path d="m174 30.48c-0.047 1.073-0.751 1.488-1.199 2.16 0.5 0.62 0.978-0.621 1.68 0 0.071 0.951-0.293 1.467-0.72 1.92-0.513 0.112-0.457-0.343-0.48-0.72-0.727-0.293-1.286 0.201-2.16-0.24 0.078-1.042 1.03-1.21 1.44-1.92-2.201-1.475-3.33 3.316-5.76 2.4 1.467-1.973 3.731-3.149 6.239-4.08 0.66-0.175 0.48 0.477 0.96 0.48z"/>
	<path d="m105.36 30.48c1.06-0.035-0.022 0.588 0.24 1.2 0.864 0.064 1.156-0.443 1.92-0.48-0.129 0.849 0.389 1.052 0.72 1.44-0.061 1.059-0.976 1.264-1.2 2.16 0.106 0.934 1.098 0.983 1.681 1.44-1.72 0.755-3.21-0.786-3.36-2.4 0.818-0.142 1.261-0.659 2.16-0.72-2.053-0.742-2.792-0.62-4.56-0.96 0.18-1.181 1.73-0.992 2.4-1.68z"/>
	<path d="m157.68 32.4c-0.283 1.237-1.786 1.254-2.88 1.68-1.812 1.312-0.242 3.632-0.24 6 0.001 1.426-0.842 2.896-0.96 4.32-0.163 1.96 0.716 4.228-0.72 5.76-1.09-0.351-1.003-1.877-0.96-3.36 0.746 0.054 0.405 1.195 0.479 1.92 1.249-1.038 0.319-2.607 0.48-4.08 0.226-2.071 1.527-4.299 0.72-6.48-1.944 1.835-1.491 5.249-1.92 8.16-1.144-0.477-0.242-1.867-0.24-2.64 0.003-1.036-0.379-1.951 0-3.12 0.746-2.304 2.168-4.734 2.64-6.96 0.019-1.138-2.05-0.19-1.92-1.44 0.251-1.298 2.639-0.399 2.4 0.96 1.21-0.07 2.09-0.469 3.12-0.72z"/>
	<path d="m142.8 31.68c1.146 1.075 0.356 2.955 0.72 5.04-0.8-1.116-0.28-3.557-0.72-5.04z"/>
	<path d="m149.52 32.4c-0.222 0.659-0.757 1.003-1.44 1.2-0.44-0.559 0.42-1.362 1.44-1.2z"/>
	<path d="m50.64 32.64c1.008 0.156 1.094 3.161 0 3.6-0.29-0.839-0.447-2.79 0-3.6z"/>
	<path d="m149.76 32.88c1.277-0.157 0.353 1.888 1.92 1.44 0.04 0.601-0.369 0.751-0.72 0.96 0.157 0.322 0.513 0.447 0.96 0.48 0.711-0.409 0.59-1.65 0.96-2.4 0.709 1.913-1.128 3.35-1.44 5.04-0.36-0.067-1.011-1.032-1.2-0.48-0.995-0.393 0.257-0.682 0.24-0.96-0.03-0.504-1.327-0.662-0.48-1.44-0.591 0.032-1.156 0.036-1.439-0.24 0.87-0.328 0.56-1.844 1.2-2.4z"/>
	<path d="m146.64 33.84c0.907-0.206 0.85 1.075 0.479 1.44-0.91 0.206-0.85-1.074-0.48-1.44z"/>
	<path d="m131.52 34.32c0.88 1.303-0.256 4.47-0.24 6.48-1.05-0.76-0.63-5.343 0.24-6.48z"/>
	<path d="m110.64 35.28c-0.147 1.019-2.383 0.425-2.16-0.48 0.68-0.565 1.59 0.188 2.16 0.48z"/>
	<path d="m126.96 36.72c1.339 0.624 0.53 2.413 0.96 3.6 0.427 1.179 1.412 1.706 2.159 2.4 0.766-0.333 1.284-0.459 1.681-1.2 0.889-1.662-0.223-5.061 1.2-6.24-0.291 3.361-0.02 8.469-2.881 8.4-1.38-0.033-4.35-4.848-3.12-6.96z"/>
	<path d="m167.76 35.28c0.278-0.039 0.427 0.053 0.479 0.24-0.756 4.218-1.747 7.551-3.12 11.28-0.644 1.75-1.416 3.229-1.199 6 2.671-0.303 3.298-4.69 3.84-7.92 1.214-0.706 0.264-3.576 1.68-4.08-1.519 4.642-0.953 11.367-5.52 12.96-2.143-2.704 0.634-6.464 1.68-10.08 0.88-3.047 1.32-6.068 2.16-8.4z"/>
	<path d="m172.32 36.24c0.76 0.2 1.22 0.7 1.68 1.2 0.655 0.651-0.62 0.597-0.479 1.44 2.394-0.327 3.807-1.633 6.24-1.92 0.227 1.705-3.064 1.869-3.601 3.6 0.153 0.523-0.68 0.764 0.24 0.72-0.085 0.315-0.423 0.378-0.479 0.72-0.771 0.21-0.498-0.623-0.96-0.72 0.258-1.182 1.351-1.528 1.68-2.64-1.007-0.36-2.169 1.187-3.601 1.2-0.105-0.213-0.21-0.429-0.479-0.48 0.73-1.554-0.02-1.553-0.24-3.12z"/>
	<path d="m50.64 37.44c-0.562 0.725-1.678 0.184-2.88 0.24-2.416 0.113-5.938 0.995-6.96-0.72 1.174-0.18 2.375 0.087 3.84 0 2.14-0.127 5.003-1.412 6 0.48z"/>
	<path d="m114.48 36.48h0.72c0.367 0.437 0.367 1.963 0 2.4-1.1-0.204-1.02-1.377-0.72-2.4z"/>
	<path d="m109.44 41.52h-0.72c-0.33-1.194 0.196-3.436 0.479-4.8 0.565-0.005 0.707 0.413 1.44 0.24 0.035 0.675-0.588 0.692-1.2 0.72-0.29 1.489 0.51 2.898 0 3.84z"/>
	<path d="m111.36 36.96c0.787 0.076 0.512 1.518 0 1.68-0.04 0.521 0.852 0.108 1.2 0.24 0.011 0.731-0.507 0.933-0.72 1.44 0.234 0.565 1.385 0.215 1.68 0.72-0.13 1.001-2.005 0.047-2.4-0.24 0.455-1.178-0.29-0.914-0.479-1.92 0.68-0.2 0.28-1.475 0.72-1.92z"/>
	<path d="m53.28 37.2c1.297 0.463 3.686-0.166 4.56 0.72-0.376 1.004-4.425 0.77-4.56-0.72z"/>
	<path d="m128.4 42.48c-0.707 0.758-0.28 1.468 0.24 2.16-1.187 2.58 0.103 6.696 0.72 9.6-2.598-2.184-1.275-6.341-1.92-10.08-0.431-2.497-2.754-4.754-1.92-6.96 0.896 0.527 0.502 1.947 0.72 2.64 0.38 1.192 0.78 2.363 2.16 2.64z"/>
	<path d="m145.2 37.44c1.167 0.71-0.272 2.26-0.479 3.12-1.22-0.764-0.1-2.63 0.48-3.12z"/>
	<path d="m143.52 38.16c1.075 0.667 0.271 2.245 0.24 3.36-0.036 1.264 0.645 3.242-0.721 3.6-0.96-2.47 0.65-4.241 0.48-6.96z"/>
	<path d="m170.64 40.32c0.214 0.106 0.429 0.211 0.479 0.48-1.02 4.587-1.864 9.178-3.84 12.48-0.948 1.586-1.957 3.478-2.88 5.28-1.649-1.032 0.451-2.526 0.96-3.36 2.39-3.916 4.13-9.351 5.28-14.88z"/>
	<path d="m179.04 40.8c0.532-0.132 0.342 0.458 0.721 0.48-0.382 1.138-0.856 2.185-2.16 2.4 0.07-1.369 1.4-1.482 1.44-2.88z"/>
	<path d="m44.88 42.24c-0.171 0.894-1.493 0.466-1.92 0.48-1.499 0.05-2.85-0.469-4.08-0.48-2.804-0.026-5.424 1.307-8.16 1.44 0.243-0.86 1.341-0.494 1.92-0.72 1.075-0.42 3.247-1.46 5.28-1.44 1.856 0.019 4.197 1.118 6.96 0.72z"/>
	<path d="m109.44 41.52c0.825 0.295 0.83 1.41 0.96 2.4 1.985 1.935 4.337 3.503 6 5.76-2.059-0.822-3.145-2.616-4.8-3.84 0.138 0.982 1.104 1.135 1.2 2.16-1.273-0.887-1.974-2.347-3.12-3.36 0.981-1.481-1.261-1.546-1.44-2.64 0.48-0.582 1.02 0.405 1.2-0.48z"/>
	<path d="m33.6 43.68c-0.967 0.792-2.566 0.953-4.08 1.2 0.646-1.115 2.468-1.051 4.08-1.2z"/>
	<path d="m83.04 44.4c0.104-0.537 1.183-0.097 1.68-0.24 0.113 1.152-1.395 0.691-1.68 0.24z"/>
	<path d="m84.96 44.4c0.652-0.36 2.562 0.094 3.12 0-0.14 0.886-2.935 0.632-3.12 0z"/>
	<path d="m93.36 44.4c0.068 0.388-0.227 0.413-0.24 0.72-1.146 0.185-1.545-0.375-2.64-0.24 0.398-1.253 1.632-0.299 2.88-0.48z"/>
	<path d="m90 45.12c-0.613-0.476-1.104 0.249-1.44-0.24-0.262-0.804 1.997-0.766 1.44 0.24z"/>
	<path d="m128.88 44.4c0.532 0.17 0.797 1.126 0.479 1.44-0.388 0.068-0.413-0.227-0.72-0.24-0.1-0.578 0.44-0.522 0.24-1.2z"/>
	<path d="m179.04 44.4c0.146 0.945-0.354 1.247-0.72 1.68 1.506 0.814 3.042 1.598 3.84 3.12-0.019 0.861-0.929 0.831-1.199 1.44 0.386-2.114-1.482-3.276-3.36-3.84-0.08-1.358 0.54-2.016 1.44-2.4z"/>
	<path d="m82.56 45.36c0.613 0.027 0.476 0.804 0.48 1.44-0.769 0.067-0.873-1.051-0.48-1.44z"/>
	<path d="m84.96 46.8c-1.063 0.103-1.52-0.4-1.68-1.2 0.507-0.332 1.487 0.467 1.68 1.2z"/>
	<path d="m122.64 46.56c0.354 0.431 0.779 1.376 0.479 2.16-0.192-0.127-0.39-0.25-0.72-0.24 0.03-0.691-0.13-1.571 0.24-1.92z"/>
	<path d="m113.04 48.24c1.521 0.599 1.438 1.512 2.4 2.4-0.65 0.58-1.333-0.264-2.4 0-0.072-0.632 0.333-0.788 0.96-0.72-0.18-0.697-1.14-0.623-0.96-1.68z"/>
	<path d="m121.92 48.72c0.638 0.162 1.222 0.377 1.68 0.72-0.16 1.086-2.1 0.322-1.68-0.72z"/>
	<path d="m53.76 49.44c1.049 0.651-1.359 1.35-2.4 1.44 0.533-0.747 1.592-0.968 2.4-1.44z"/>
	<path d="m105.84 49.92c0.811 0.278 1.023-0.169 1.439 0.24 0.26 0.804-2 0.766-1.44-0.24z"/>
	<path d="m110.16 50.16c-0.065 1.142-1.629 0.4-2.399 0.24 0.33-1.032 1.53-0.108 2.4-0.24z"/>
	<path d="m116.64 49.92c1.168-0.128 1.123 0.957 1.92 1.2-0.41 0.316-1.81-0.418-1.92-1.2z"/>
	<path d="m134.4 50.4c0.973 0.228 1.028 2.381 0.72 3.12-0.766 0.206-0.742-0.378-1.199-0.48-0.15-1.189 0.81-1.271 0.48-2.64z"/>
	<path d="m103.2 50.88c-1.315 0.874-4.156 1.404-5.76 1.2 1.354-0.835 4.43-1.128 5.76-1.2z"/>
	<path d="m124.32 52.56c1.244 0.104 3.747 2.816 3.36 3.84-1.391 0.83-3.341-0.029-5.521 0.24 0.682-1.079 3.33-0.19 4.801-0.48-0.01-1.113-2-2.314-2.64-3.6z"/>
	<path d="m39.36 53.04c0.247 1.021-0.448 2.599-0.48 4.08-2.072 0.022-0.681-2.055-0.96-3.6 0.502-0.138 0.685-0.595 1.44-0.48z"/>
	<path d="m27.36 53.76c0.867 0.493 0.289 2.431 0.96 3.12-1.182-0.199-1.451-1.974-0.96-3.12z"/>
	<path d="m10.8 60c-0.763-0.037-1.056-0.544-1.92-0.48 0.276-1.636-0.662-2.059-2.16-1.92 0.797 0.328 0.328 1.164 0 1.68 1.871 1.649 3.116 3.924 4.32 6.24-1.21-0.47-1.383-1.977-2.88-2.16 0.094-2.094-1.074-2.926-2.16-3.84-0.899-0.019-0.725 1.034-1.92 0.72 0.298-1.301 2.057-1.143 2.4-2.4-0.108-0.691-0.849-0.75-0.72-1.68 1.649-0.424 3.983-1.458 4.8 0.48-0.041 0.679 0.207 1.646-0.48 1.68 0.108 0.692 0.849 0.751 0.72 1.68zm-3.12-3.84c0.343 0.776 1.015 1.225 1.92 1.44 0.756-1.117-0.867-2.185-1.92-1.44z"/>
	<path d="m95.76 55.44c1.017-0.011 0.217 1.637-0.48 1.44-0.257-0.897 0.596-0.684 0.48-1.44z"/>
	<path d="m130.56 57.12c-0.181 1.109-1.604-0.178-2.16-0.24 0.15-1.079 1.28 0.503 2.16 0.24z"/>
	<path d="m178.56 56.4c0.087 0.983 0.756 2.422 0 3.36 0.794 1.927 3.444 3.273 2.64 6 0.349 0.611 1.276 0.644 1.681 1.2-0.882 0.479-0.248 2.472-1.44 2.64-0.077-1.117 0.479-1.602 0.48-2.64-0.078-0.562-1.048-0.233-1.2-0.721-1.287 0.313-1.06 2.141-1.44 3.36-1.14-0.802 0.119-2.763 0.24-3.84 0.967 0.246 1.066-0.374 1.44-0.721-0.305-1.775-1.944-2.216-2.16-4.079-2.127 0.674-3.124 2.477-3.84 4.56-1.028-0.746 0.068-2.57 0.72-3.36 0.568-0.688 1.539-0.97 1.92-1.439 0.3-1.456-0.06-3.582 0.96-4.32z"/>
	<path d="m18 58.8c-1.443-0.163-1.846 0.714-3.36 0.48-0.108-0.691-0.85-0.75-0.72-1.68 0.938-0.768 4.465-1.298 4.08 1.2zm-3.36-0.72c0.491 0.548 2.148-0.069 2.64 0.48 0.478-1.423-2.473-1.206-2.64-0.48z"/>
	<path d="m18.72 56.88c0.571 1.071 1.622 0.171 2.64 0.72-0.301 0.659-1.298 0.622-2.16 0.72-0.138-0.502-0.595-0.685-0.48-1.44z"/>
	<path d="m120.72 57.12c0.571 0.468 2.226-0.146 2.399 0.72 0.346-0.054 0.084-0.716 0.48-0.72 1.124 0.172 2.222 0.298 4.08 0.24 0.388 0.332 0.298 1.142 1.2 0.96 0.081 0.482-0.05 0.751-0.48 0.72 1.711 0.34 3.327 0.515 4.561 0.24-1.117 2.226-5.976-0.292-8.16 0.721-0.425-0.216-0.701-0.58-1.2-0.721-0.912 0.318-1.331 0.596-2.4 0.24 0.01-0.933-0.88-1.828-0.48-2.4z"/>
	<path d="m154.56 63.6c-0.712 0.143-1.658-0.63-2.4-1.2-1.163-0.895-1.975-1.757-2.88-2.88-0.614-0.346-1.678-0.242-1.439-1.44 2.56 1.517 4.26 3.895 6.72 5.52z"/>
	<path d="m81.36 58.32c-0.25 0.65-2.285 1.903-2.4 0.48 1.019 0.059 1.292-0.628 2.4-0.48z"/>
	<path d="m15.12 60.48c0.192-0.803 1.771 0.101 1.92-1.2 0.196 1.725 2.207 1.633 2.16 3.601 2.475 0.043 4.555-0.005 6.24 0.239 0.068 1.269-1.7 0.7-2.4 1.2 0.097 0.463 1.099 0.021 0.72 0.96-0.691-0.028-1.571 0.131-1.92-0.24 0.077 0.563 0.379 0.901 0.24 1.681 2.025-0.415 4.387 0.724 6.24 0.479-0.613 0.776-2.27 1.287-3.12 0.48-0.592 1.118-2.999 0.786-4.08 0 0.656-1.666-0.527-3.815-2.64-4.08 0.078-1.438-0.701-2.019-1.2-2.88-1.135-0.095-1.578 0.508-2.16-0.24z"/>
	<path d="m81.12 59.52c-0.113 0.709-2.099 1.643-2.16 0.24 0.881 0.077 1.645-0.684 2.16-0.24z"/>
	<path d="m150.48 62.64c-0.707-0.865-2.15-2.1-1.92-3.12 0.77 0.91 1.74 1.625 1.92 3.12z"/>
	<path d="m122.4 60h1.92c-0.334 0.706-0.426 1.654-0.72 2.399 1.155 0.494 0.723 1.635 0.96 2.64-1.215-0.244-1.577-2.385-1.68-3.359-0.014-0.13-0.474-0.523-0.48-0.48 0.15-0.941 0.99-0.212 0-1.2z"/>
	<path d="m15.12 60.48c-1.256 1.064-2.01 2.63-3.36 3.6 0.72-1.6 1.284-3.356 3.36-3.6z"/>
	<path d="m80.64 60.72c-0.04 0.823-1.243 1.277-1.68 0.96-0.173-1.054 0.8-0.96 1.68-0.96z"/>
	<path d="m80.88 61.68c-0.082 0.909-1.363 1.522-1.92 1.2 0.038-1.003 1.179-0.901 1.92-1.2z"/>
	<path d="m15.84 62.64c0.759-0.039 0.802 0.638 1.68 0.479 0.088 0.408-0.187 0.453-0.48 0.48 0.612 0.348 1.609 0.311 2.16 0.72v1.2c-1.281 0.001-2.412-0.148-3.12-0.72 0.435-0.82-0.275-1.116-0.24-2.159z"/>
	<path d="m99.36 62.88h0.72c-0.112 1.808 0.306 4.146-0.72 5.04-0.059-2.373-0.164-2.709 0-5.04z"/>
	<path d="m83.04 66.24c-0.316-0.605-0.788 0.63-1.44 0.48-0.4-0.478 0.021-0.306 0-0.96-0.477 0.003-0.305 0.654-0.96 0.479-0.067-0.547 0.058-0.902 0.48-0.96-0.204-0.356-0.773-0.347-1.2-0.479-0.102-0.502 0.165-0.636 0.24-0.96 0.423 0.525 0.833 0.695 0.48-0.24h1.2c0.068 0.388-0.227 0.413-0.24 0.72 0.757 0.117 0.848-0.433 1.68-0.24-0.459 1.354 0.946 1.81 2.16 2.16-0.499 0.702-1.692 0.708-2.64 0.96-0.312-0.319-0.316-0.893 0.24-0.96z"/>
	<path d="m57.6 64.32c0.771-0.21 0.498 0.623 0.96 0.72-0.196 0.685-0.386 1.374-1.44 1.2-0.116-0.916 0.068-1.532 0.48-1.92z"/>
	<path d="m173.52 68.88c0.158-0.719 0.513 0.229 0.96 0-0.014-0.787-0.683-0.918-0.48-1.92-0.468-0.021-1.866 0.879-0.72 0.96-0.807 0.867-1.104-0.802-1.68-0.96-0.414 0.43 1.019 1.049 0.96 1.92-1.548-0.692-1.939-2.541-3.36-3.36-1.006-0.046-0.741 1.178-1.92 0.96 0.576-0.864 1.315-1.564 2.4-1.92 0.9 0.699 1.7 1.499 2.399 2.4 1.806-1.23 3.569-1.18 6.721-1.2-0.17 0.87-1.749 0.331-2.641 0.479-0.677 0.044-0.299 1.141-1.199 0.96-0.141 1.115 0.328 1.449 0 2.16 0.242 0.397 1.019 0.261 1.439 0.48-0.418 1.218 1.042 0.558 0.96 1.439-1.91-0.167-2.53-1.633-3.84-2.398z"/>
	<path d="m69.12 70.56c0.558 0.562 0.286 1.954 1.2 2.16 0.723-2.298 3.925-0.17 4.8-0.96-0.284-0.118-1.536-0.057-1.68-0.96 1.964-0.851 3.306 0.862 2.16 2.399-1.096 0.024-2.091 0.149-2.64 0.721-0.727-0.294 0.169-0.916 0.24-1.2-0.808-0.423-1.231 0.161-2.4 0-0.285 1.484 0.357 2.043 0.72 2.88-2.495-0.018-4.739 0.721-7.44 0.96-0.567 2.396 0.304 5.134-1.2 6.24 0.005 0.715 1.132 0.308 1.44 0.72-0.275 1.484-1.324 2.195-3.36 1.92-0.239 0.722-0.654 1.266-1.44 1.44 0.097 0.463 1.099 0.021 0.72 0.96-1.801-0.68-4.663-0.297-4.08-3.36 0.284-0.276 0.848-0.271 1.44-0.24 0.21 0.771-0.623 0.498-0.72 0.96 0.176 0.225 0.437 0.364 0.72 0.48 0.504-0.067-0.348-0.642 0.24-0.96 1.385 0.044 2.134-0.426 3.12 0.24 0.62-0.581 0.597-1.804 1.68-1.921 0.095-0.976-1.021-0.738-1.2-1.439 0.534-2.506 1.001-5.078 1.44-7.68-0.712 0.808-0.844 2.195-1.44 3.119-1.112-1.057 0.6-3 0.96-4.079 0.741-2.222 0.774-4.939 1.92-6.721 1.399 0.066 0.296 1.452 0 1.92 1.396 2.344-0.127 4.449-0.48 6.96 1.427 1.432 5.069-0.092 6.24-1.199-1.196-1.111-2.165-1.767-2.64-3.12 0.601-0.347 0.942-0.581 1.68-0.24z"/>
	<path d="m90 67.68c-1.615-1.201-1.032 1.402-3.6 1.92-0.929 0.188-1.562-0.128-3.12 0-0.002-1.899 1.646-0.379 2.64-0.48 0.373-0.853-0.815-0.145-0.72-0.72-0.23-0.87 1.036-0.244 1.2-0.72 0.532-0.132 0.342 0.458 0.72 0.479 0.784-0.554 3.383-2.867 2.88-0.479z"/>
	<path d="m11.04 66.96c0.388-0.068 0.413 0.227 0.72 0.239-0.486 1.202 0.287 1.326 0.24 2.641-1.544 0.414-0.977-2.26-2.4-1.2 0.217 0.423 0.537 0.743 0.96 0.96-0.296 0.344-0.825 0.455-1.44 0.479-0.106-0.213-0.211-0.429-0.48-0.479-0.174-0.734 0.414-0.706 0.24-1.44 0.649-0.471 2.241 0.001 2.16-1.2z"/>
	<path d="m68.16 70.32c-1.042-0.051-1.53 1.356-2.64 0.48 0.182-0.618 0.766-0.834 1.68-0.721 0.255-1.213-0.07-2.313 0.96-3.119 0.612 0.718 0.607 0.562 1.92 0.479 0.247 0.554 0.826 0.773 0.72 1.68-1.672 0.393-1.134-1.426-2.88-0.96-0.128 0.929 0.428 1.173 0.24 2.161z"/>
	<path d="m8.16 67.44c-0.597 1.084-1.256 2.104-2.64 2.4 0.587-0.984 1.333-2.917 2.64-2.4z"/>
	<path d="m17.04 67.2c0.75-0.109 0.767 0.513 0.72 1.2-0.911 0.209-1.127-0.797-0.72-1.2z"/>
	<path d="m164.88 67.68c1.22 0.38 3.19 0.01 4.319 0.479-0.292 1.747-2.76 0.235-4.319 0.96-0.33-0.306-0.33-1.132 0-1.439z"/>
	<path d="m79.68 67.92c0.584 0.375 0.881 1.038 2.16 0.72 0.275 0.755-0.376 0.583-0.48 0.96-0.952-0.107-2.274-0.789-1.68-1.68z"/>
	<path d="m65.28 68.4c0.688-0.047 1.31-0.029 1.2 0.72-0.634-0.006-1.504 0.224-1.2-0.72z"/>
	<path d="m130.8 68.64c0.095 1.169-1.092 0.387-1.681 0.24 0.1-0.537 1.18-0.097 1.68-0.24z"/>
	<path d="m99.12 69.12c0.898-0.019 0.819 0.941 0.96 1.681-1.163 0.115-1.3-0.94-0.96-1.681z"/>
	<path d="m131.52 69.12c1.702 0.219 2.856 0.983 3.36 2.4-0.478 0.003-0.306 0.654-0.96 0.48 0.74-1.713-1.83-1.733-2.4-2.88z"/>
	<path d="m169.2 69.84c0.062 0.782-0.284 1.154-0.96 1.199 0.147 0.812 1.615 0.305 2.16 0.721 0.644-0.905 3.705-1.584 4.8-0.48-0.575 0.625-1.451 0.948-1.68 1.92-0.965 0.005-1.544-0.376-1.92-0.96-0.682 1.377-2.397 4.112-0.48 5.28 1.392-1.169 2.969-2.152 3.841-3.84 0.771-0.211 0.328 0.791 0.96 0.72 0.314-0.085 0.377-0.423 0.72-0.479 0.18-0.82-0.976-0.306-0.72-1.2 0.751 0.111 1.071-0.209 0.96-0.96 0.826 0.213 1.771 0.31 1.92 1.2-0.722-0.15-2.048 0.926-1.92 2.399-1.843-0.018-3.231 0.396-4.32 1.68-0.12 0.142 0.104 0.564 0 0.721-0.866 1.313-2.117 1.566-2.16 3.6-0.018 0.856 0.496 1.758-0.24 2.641-0.918-0.039-1.903-0.144-1.92 0.72 0.133 0.521 0.928-0.813 1.44 0-0.035 1.325-0.705 2.015-0.72 3.359-0.678-0.122-1.02-0.58-1.681-0.72-0.159-1.439 0.218-2.342 0.24-3.6-2.888 2.256-1.093 7.291-1.44 11.04-0.734-0.409-0.853-1.81-0.96-2.88-0.248-2.472 0.084-5.271 0-7.44-0.054-0.346-0.716-0.084-0.72-0.479-0.124-1.245 0.752-1.488 0.96-2.4-0.407-0.757-1.116-0.299-1.92-0.24 0.31-1.931 1.517-2.963 2.16-4.56-0.454-0.606-0.842 0.221-1.44-0.24-0.244-1.045 0.497-1.104 0.721-1.68-0.592 0.031-1.156 0.036-1.44-0.24-0.078-0.891 1.503-1.361 2.16-0.72 0.571-0.148 0.394-1.046 1.439-0.721-0.582-1.368-3.108-0.575-4.319 0-0.141-1.26 0.423-1.816 0.24-3.12 0.43-0.03 0.506 0.294 0.96 0.24 1.12-1.694 3.57 0.17 5.28-0.481zm0 3.84c0.73-0.02 0.562-1.569 0.24-1.92h-0.72c-0.35 0.42-0.25 1.847 0.48 1.92zm-3.36 2.88c0.737-0.062 1.079-0.521 1.68-0.72-0.095-0.854-0.086-1.438-0.24-1.681-0.6 0.678-1.18 1.381-1.44 2.401zm2.4 6.72c0.243-0.418 0.178-2.132-0.479-2.399 0.337 0.993-0.685 1.854 0 2.399-0.206-0.836 0.378-0.831 0.479-0.24-0.13 0-0.27 0.195 0 0.24z"/>
	<path d="m178.8 69.84c-0.147 0.86-1.615 0.398-2.16 0.239 0.46-0.542 1.46-0.551 2.16-0.239z"/>
	<path d="m102.72 69.84c0.666 0.054 0.679 0.761 1.2 0.96-0.224 0.817-0.673 1.407-0.48 2.64-1.09-0.88-0.71-1.813-0.72-3.6z"/>
	<path d="m8.4 70.08c-0.214 0.917 0.392 1.532 0 1.921-1.441 0.189-1.59-2.241 0-1.921z"/>
	<path d="m111.84 70.08c0.678-0.198 0.621 0.339 1.199 0.24 0.211 0.771-0.622 0.498-0.72 0.96-0.36-0.204-0.52-0.604-0.48-1.2z"/>
	<path d="m185.52 71.04c-1.043 0.396-3.631 0.276-3.84-0.96 1.16 0.435 2.78 0.422 3.84 0.96z"/>
	<path d="m9.12 70.32c0.481 0.399 1.115 0.645 1.2 1.44 0.4 0.319 1.527-0.088 1.44 0.72-1.896 0.4-2.872-1.211-2.64-2.16z"/>
	<path d="m66.72 72.72c-0.344 0.366-1.251 0.233-1.2-0.48 0.358-0.381 1.368-0.351 1.2 0.48z"/>
	<path d="m188.88 72.48c-0.029 0.61-0.35 0.931-0.96 0.96-0.75-0.661 0.3-1.707 0.96-0.96z"/>
	<path d="m182.88 72.48c0.388-0.067 0.413 0.227 0.72 0.24 0.053 0.583-0.306 1.228-0.48 2.16-0.273 1.464 0.802 4.641-0.96 4.56-0.613-0.733 0.578-1.199 0.48-2.16-0.2-1.589-0.48-3.561 0.24-4.8z"/>
	<path d="m8.16 72.72c1.423-0.144 2.139 0.421 3.6 0.24 0.096 0.886-1.404 2.063-1.68 3.359-0.798 0.295-0.587-1.622-0.24-1.68-0.271-0.928-1.218-1.181-1.68-1.919z"/>
	<path d="m102.72 73.44c0.846 0.761 1.113 0.14 2.16 0 0.181 0.9-0.917 0.523-0.96 1.2-0.388-0.041-1.237-0.806-1.44-0.24-0.74-0.235 0.28-0.641 0.24-0.96z"/>
	<path d="m12.24 73.68c0.388-0.067 0.414 0.227 0.72 0.24-0.47 1.074 0.09 2.4-0.72 3.6-0.995-0.636-0.427-3.675 0-3.84z"/>
	<path d="m8.16 74.16c0.501-0.102 0.635 0.165 0.96 0.24-0.58 1.014-0.436 3.028 0.96 3.36 0.112 0.512-0.343 0.457-0.72 0.479-0.101 0.981 0.79 0.971 0.48 2.16-1.064 0.005-1.359-1.702-0.96-2.399-0.453-1.06-1.331-2.455-0.72-3.84z"/>
	<path d="m95.28 75.84c1.175 0.585 0.931 2.589 0.96 4.319-1.244-0.195 0.393-3.271-1.2-3.12 0.202-0.278 0.316-0.642 0.24-1.199z"/>
	<path d="m177.12 75.84c0.834-0.084 1.005 1.127 0.721 1.439-0.73 0.009-0.6-0.841-0.72-1.439z"/>
	<path d="m186.48 76.08c0.279-0.038 0.427 0.054 0.48 0.24 0.055 0.936-0.516 1.244-0.721 1.92 0.236 1.23 0.659 3.773-0.72 4.08 0.13-2.274-0.52-5.317 0.96-6.24z"/>
	<path d="m20.88 76.8c0.214 0.106 0.429 0.21 0.48 0.479 0.251 1.286-0.674 2.218-0.96 3.12-0.122 0.385 0.448 1.471-0.48 1.44 0.274-1.333 0.168-3.518 0.96-5.039z"/>
	<path d="m106.56 78.24c-0.878-0.322-1.328-1.071-2.88-0.72 0.34-0.953 3.08-0.435 2.88 0.72z"/>
	<path d="m109.92 77.04c0.678-0.198 0.621 0.339 1.199 0.24 0.036 0.596 0.045 1.165-0.479 1.2-0.73 0.008-0.6-0.842-0.72-1.44z"/>
	<path d="m174.48 77.28c-0.672 0.87-0.196 2.03-0.48 2.88-0.321 0.965-1.251 1.524-1.439 2.4-0.266-0.709-0.497-1.28-1.44-0.72 0.015-1.826 1.176-2.505 2.16-3.36-0.06-0.855 0.34-1.255 1.2-1.2z"/>
	<path d="m13.68 78c0.388-0.068 0.413 0.227 0.72 0.239 0.062 0.783-0.285 1.155-0.96 1.2-0.118-1.047 0.74-0.51 0.24-1.439z"/>
	<path d="m152.16 78.48c0.733 0.197 0.576 0.675 1.44 0.24-0.852 0.908-2.156 1.363-2.64 2.64 1.041 0.475 1.966-1.229 3.359-1.2-0.305 0.976-1.925 0.636-2.16 1.681 0.449 0.276 1.407-0.984 2.641-0.721 0.231 0.73-0.407 0.5 0 1.2 0.061 0.104 0.733 0.531 0.72 0.48 0.395 1.459 0.062 3.132-1.2 4.08-0.215 0.774 0.783 0.337 0.96 0.72-0.828 0.931-2.253 1.267-2.16 3.12-1.386-0.049-0.33-1.757-0.239-2.641 0.04-0.398-0.297-0.823-0.24-1.199 0.249-1.657 1.096-3.432 1.68-4.561-1.09-0.114-3.907 0.461-5.04 1.681-0.501-0.572 0.337-1.26 0.96-1.44-1.37-1.619 1.38-2.816 1.92-4.08z"/>
	<path d="m64.32 79.2c0.79 0.011 1.195 0.405 2.16 0.24-0.794 0.739-0.59 0.997-2.16 0.96-0.088-0.408 0.188-0.453 0.48-0.479-0.156-0.245-0.552-0.25-0.48-0.721z"/>
	<path d="m156.96 79.2h0.72c0.68 2.111-0.803 2.46-1.2 4.08-1.36-1.295 1.09-2.035 0.48-4.08z"/>
	<path d="m109.44 80.64c-0.866-0.365-0.593-0.801-1.92-0.96 0.333-0.548 1.671-0.09 2.4-0.24 0.18 0.739-0.83 0.293-0.48 1.2z"/>
	<path d="m109.92 79.92c0.935-0.048 0.626 2.229-0.48 1.68-0.02-0.744 0.29-1.146 0.48-1.68z"/>
	<path d="m159.36 80.16c0.168 0.888-0.38 1.061-1.2 0.96v-0.72c0.28-0.201 0.64-0.317 1.2-0.24z"/>
	<path d="m129.36 80.64h0.72v1.68c-0.949-0.31-0.489 0.79-1.439 0.48 0.14-0.821 0.8-1.117 0.72-2.16z"/>
	<path d="m147.84 80.64c0.201 0.278 0.316 0.644 0.239 1.2-0.757-0.043-1.431-0.169-1.439-0.96 0.68 0.199 0.62-0.338 1.2-0.24z"/>
	<path d="m111.6 83.52c-0.219-0.656-0.841 0.426-1.2-0.24-0.095-1.455 1.022-1.697 1.68-2.399 0.688 0.568 0.958 0.163 1.681 0.479-0.007 1.113-1.623 0.617-1.92 1.44 0.029 0.53 1.018 0.102 1.439 0.239 0.099 0.579-0.438 0.522-0.24 1.2 0.731 0.011 0.934-0.507 1.44-0.72 0.095-0.575-1.093 0.133-0.72-0.72 0.598-0.202 1.285-0.314 2.16-0.24 0.344-1.145-1.784 0.185-1.44-0.96h1.92c0.359 0.36 0.43 1.011 0.96 1.2-2.598 1.22-5.295 3.426-5.04 6.72-1.067-0.053-0.598-1.642-1.68-1.68-1.076 0.524-1.54 1.659-1.92 2.88-1.728-0.498-2.015-5.048 0-5.28-0.237 1.036-0.902 2.678-0.24 3.84 1.87-1.367 0.94-4.45 3.12-5.759z"/>
	<path d="m161.28 80.88c0.96-0.16 0.965 0.635 0.96 1.439-0.77-0.03-1.06-0.543-0.96-1.439z"/>
	<path d="m131.04 81.12c0.6 1.881 2.636 2.325 4.32 3.12-0.898 0.569-2.866-1.008-3.12 0.96-0.565 0.234-1.522 0.078-1.439 0.96-0.833-0.527-0.388-2.332-0.96-3.12 0.42 0.22 0.833 0.446 0.72 1.2 0.704-0.016 0.892-0.549 1.2-0.96-0.08-0.88-0.95-0.969-0.72-2.16z"/>
	<path d="m174.24 81.12c0.106 0.906-0.473 1.127-0.72 1.681-0.57-0.435-0.06-1.8 0.72-1.681z"/>
	<path d="m94.8 81.6c0.86-0.14 0.73 0.71 0.72 1.439 1.214-0.319 2.608 0.147 3.12 1.2-1.286-0.101-2.473-0.741-3.36 0-1.197-0.347-0.406-1.481-0.48-2.639z"/>
	<path d="m99.84 82.32c0.102 0.502-0.165 0.636-0.24 0.96-0.523 0.044-0.764-0.196-0.72-0.72-2.046 0.092 0.303-0.901 0.96-0.24z"/>
	<path d="m126 82.08c0.388-0.067 0.414 0.228 0.721 0.24-0.174 1.026-0.158 2.242-0.96 2.641-0.19-1.229 0.34-1.745 0.24-2.881z"/>
	<path d="m90.96 82.32h2.16c0.271 0.769 0.058 0.847 0.48 1.681-1.04-0.24-1.332 0.268-1.92 0.479 0.645-1.641-0.509-0.964-0.72-2.16z"/>
	<path d="m135.84 82.32c0.848 0.498 1.727 2.022 1.199 3.12-1.187-0.253-1.491-1.389-1.92-2.4 0.655-0.175 0.483 0.478 0.96 0.48 0.6-0.166-0.45-0.641-0.24-1.2z"/>
	<path d="m88.56 82.56c0.729-0.01 1.58-0.14 1.44 0.72-0.365 0.337-1.659 0.249-1.44-0.72z"/>
	<path d="m127.68 83.04c0.388-0.067 0.413 0.228 0.72 0.24 0.027 0.918-0.877 2.148-0.479 2.641-0.36 0.574-1.201-0.381-1.2-0.96 0.15-0.811 0.85-1.069 0.96-1.921z"/>
	<path d="m153.36 83.04c-0.618 0.803-1.948 1.969-2.88 1.681 0.23-1.287 1.56-1.48 2.88-1.681z"/>
	<path d="m172.8 83.28h0.72c0.064 0.865 0.06 1.66-0.96 1.44-0.01-0.565 0.41-0.707 0.24-1.44z"/>
	<path d="m144.24 89.76c-0.546-0.734-1.486-1.074-1.68-2.16 0.638-0.642 1.141 0.077 1.68 0.24 0.111-1.192-2.738-1.53-3.12-2.4 1.095 0.105 1.773 0.627 2.641 0.96 0.347-0.293 0.364-0.916 0.72-1.2 0.784 0.756 1.093-0.317 1.92-0.239 0.62 0.967-1.233 1.351 0.24 1.92-0.412 0.627-1.243-0.339-2.16 0 2.993 3.096-0.974 7.763-4.56 7.199 0.264 2.299 1.885 7.359 0.239 8.881 0-1.599-0.564-1.56-0.239-3.12-0.777-0.297-0.184 0.776-0.96 0.479v-2.16c-1.689 1.31 0.866 6.735-1.44 7.92-0.294-2.842 0.949-4.369-0.24-6.239-1.021-0.141-0.18 1.58-1.2 1.439-0.062-2.063 0.987-3.014 1.681-4.319 0.031-3.229 1.969-6.637 0.479-9.841 1.389-0.189 1.33 1.527 0.96 2.4 0.811 0.229 1.185 0.896 1.44 1.68 0.273-1.007 1.122-1.438 0.96-2.88 0.68 0.678 1.56 1.155 2.64 1.44zm-2.64 1.44c0.789-0.171 1.806-0.113 1.92-0.96-0.33-0.687-2.32-0.484-1.92 0.96zm-2.4 0.96c0.31 0.331 1.043 0.238 1.681 0.24-0.243-1.037-1.368-1.192-1.681-2.16v1.92z"/>
	<path d="m170.4 84.96c0.279-0.039 0.427 0.053 0.48 0.239-0.415 2.226 0.017 5.297-1.2 6.721 0.054 0.346 0.716 0.083 0.72 0.479-0.115 2.365-0.26 4.7-0.96 6.48-1.666-0.806-0.068-3.243 0-4.561-0.209-0.709-0.359 0.557-0.96 0.24 0.66-3.177 1.73-5.949 1.92-9.598z"/>
	<path d="m77.52 85.2c0.982 0.378 1.002 1.719 2.16 1.92-0.501 0.95-2.021 0.657-2.4 0 0.399-0.764 0.41-1.004 0.24-1.92z"/>
	<path d="m150.72 85.92c0.101 1.153 0.087-0.286 0.72 0-0.363 5.889 1.49 10.822 1.44 15.6-1.919-4.16-2.005-9.423-2.16-14.88-0.75 0.211 0.009 1.929-0.96 1.92-0.392-0.992 0.205-2.316 0.72-3.12 0.28 0.085 0.61 0.423 0.24 0.48z"/>
	<path d="m66.96 86.88c2.658-0.696 7.282-1.737 10.08-0.721-0.177 0.863-0.476 1.604-1.68 1.44-0.276-0.284-0.271-0.849-0.24-1.44-1.325 1.556-4.72 1.041-6.96 1.681-0.102 0.501 0.165 0.635 0.24 0.96 0.333 0.547 1.67 0.089 2.4 0.239-0.493 1.431-2.632 0.195-4.32 0.24-0.941-0.062-0.892 0.868-1.92 0.721 0.629-1.211 2.557-1.123 2.4-3.12z"/>
	<path d="m65.76 88.8c-1.34-0.58-1.919-1.921-2.88-2.88 1.136 0.785 2.969 0.871 2.88 2.88z"/>
	<path d="m56.64 88.08c-0.917-0.484-2.199-0.625-3.36-0.239 0.672-0.867 3.014-0.982 3.36 0.239z"/>
	<path d="m130.32 87.12c0.364 0.099 1.025 1.826 0.96 2.4-0.06 0.521-0.248 1.273-0.96 1.2 0.49-1.205-0.47-2.483 0-3.6z"/>
	<path d="m54.96 88.32c-0.324 0.255-1.805 0.569-1.92 0.24-0.158-0.908 1.682-0.45 1.92-0.24z"/>
	<path d="m63.6 88.8c-0.564 0.962-1.917-0.792-3.6-0.24 0.696-1.095 2.854-0.145 3.6 0.24z"/>
	<path d="m167.52 89.28h0.72c-0.034 2.285 0.062 4.703-0.72 6.24-0.927-0.584 0.271-2.821 0.24-4.56-0.01-0.594-0.44-1.093-0.24-1.68z"/>
	<path d="m58.08 90c-0.478 1.348-1.693-0.266-2.64 0-0.686 0.298 1.043 0.697 0.24 1.199-0.563-0.076-0.901-0.379-1.68-0.239 0.091-1.761 2.835-1.683 4.08-0.96z"/>
	<path d="m60.96 90c0.519-0.698 2.28 0.252 1.44 0.96-0.728-0.073-0.674-0.926-1.44-0.96z"/>
	<path d="m69.12 91.68h-1.68c0.005-0.741 1.801-1.186 1.68 0z"/>
	<path d="m176.16 90.96c0.912 0.208 0.207 2.033 0.721 2.64-0.84-0.277-0.74-1.504-0.72-2.64z"/>
	<path d="m64.56 91.68c0.027 0.907-0.47 1.29-1.2 1.439 0.588 0.372 1.562 0.358 2.4 0.48-0.2 1.217-1.104 0.303-2.16 0.479 0.058 0.423 0.413 0.548 0.96 0.48-0.549 0.937-1.544 0.104-2.64 0.24-0.051-1.282 1.075 0.005 1.44-0.96-1.088-0.664-2.303 0.469-3.6-0.48 0.679-1.607 3.06-2.52 4.8-1.678zm-3.36 1.44c1.356 0.157 2.179-0.22 2.64-0.96-0.815-0.452-2.909-0.439-2.64 0.96z"/>
	<path d="m73.2 91.44c-0.073 1.309-1.86 1.564-2.88 1.2 0.548-0.812 1.568-1.152 2.88-1.2z"/>
	<path d="m66.72 91.92c-0.164 0.716-0.956 0.804-1.92 0.72-0.396-1.26 1.416-1.103 1.92-0.72z"/>
	<path d="m67.44 92.16h1.44c0.134 0.691 0.174 0.417 0.48 1.2-0.74 0.46-1.762 0.639-2.88 0.72-0.128-1.088 1.359-0.561 1.92-0.96-0.076-0.565-1.138-0.142-0.96-0.96z"/>
	<path d="m147.6 92.88c0.775 1.125-0.548 4.012-0.96 5.52-1.019-0.461-0.221-1.96 0-2.88 0.24-0.983 0.51-2.056 0.96-2.64z"/>
	<path d="m59.04 93.36c0.908-0.028 0.357 1.403 1.2 1.44-0.628 0.743-1.96-0.756-1.2-1.44z"/>
	<path d="m132.72 96c0.388-0.068 0.413 0.227 0.72 0.239-0.25 2.812 0.973 5.426 0.48 7.681-1.584-1.511-0.329-4.753-1.44-6.96-0.1-0.502 0.16-0.635 0.24-0.96z"/>
	<path d="m168.48 99.12c0.901-0.182 0.812 0.629 1.2 0.96-0.372 1.05-1.365 2.553-2.4 2.16-0.05-1.49 1.17-1.71 1.2-3.12z"/>
	<path d="m130.08 19.2v-1.2c-0.744-0.025-0.685 0.755-1.68 0.48 0.458-0.528-0.319-1.277-0.72-1.68-0.319 0.241-0.725 0.396-0.96 0.72 0.789 0.091 0.759 1.001 1.439 1.2 0.041 0.52-0.851 0.108-1.199 0.24 0.127-0.193 0.25-0.39 0.239-0.72-1.24-0.12-1.116 1.124-2.399 0.96-0.45-0.457-0.026-0.603 0-1.2-0.306-0.734-0.783-0.122-1.681-0.48-0.909 1.811-3.359 1.935-4.8 0.48 0.652-1.587 3.722-0.758 4.08-2.64 0.902 1.645 2.455-0.42 3.6-0.72-1-0.312-1.706-0.494-3.6-0.48 0.065-1.171-1.06-2.407-2.16-3.12 1.591-1.387 2.335 1.896 3.84 2.16 1.24-1.08 4.32-0.32 4.32-2.64 2.591 0.111 2.483-2.477 5.04-2.4-1.939 2.221-4.717 3.603-5.76 6.72 0.692 0.023 1.366 0.247 2.399 0.48-0.101 0.78-1.068 0.691-0.96 1.68 0.219 0.421 0.842 0.439 1.2 0.72 0.824 1.614-2.062 2.598-0.479 4.08-1.102 1.219-2.767 1.874-3.601 3.36 0.399 0.613 0.645-0.937 1.44-0.72 0.015 0.895-0.242 1.518-0.48 2.16 0.951 0.463 0.723-2.312 2.4-1.92 0.587 0.566-0.358 0.446-0.24 1.2 0.592 0.032 1.156 0.037 1.44-0.24-0.679-0.892-1.131-1.098-0.48-2.4-1.239 0.041-1.548 1.012-2.64 1.2 0.525-1.235 1.842-1.678 2.88-2.4-0.492-1.597 2.312-3.565 1.2-5.04 0.904-1.095 3.232-0.768 4.08-1.92-0.003-0.477-0.655-0.305-0.48-0.96 1.768-0.473 2.737-1.743 4.8-1.92-0.599 1.321-2.436 1.404-3.6 2.16-0.215 1.226-0.762 2.119-2.16 2.16-0.021 1.519-1.884 2.36-2.88 3.6-0.172 0.651 1.132-0.172 0.96 0.48-0.074 1.181-0.803 0.318-1.44 0.72-0.198 0.708 0.419 0.972-0.479 1.68 1.169 0.289 0.65-1.11 1.92-0.72 0.422 0.72-0.361 1.939-0.72 2.64 0.06 0.261 0.477 0.163 0.479 0.48 0.57-0.55 1.032-1.208 1.92-1.44 1.153-0.113 0.614 1.466 1.92 1.2-0.119 1.32-2.284 0.595-2.88 1.44 0.488 0.549 1.437-0.47 2.4-0.24 0.134 1.174-0.932 1.148-1.44 1.68 0.212 1.936-0.542 3.482-0.239 5.28-0.596 0.125-0.855 0.585-1.2 0.96-0.655 0.175-0.483-0.477-0.96-0.48-0.168-1.093 0.722-1.982 1.439-1.44 0.189-0.829-0.224-1.056-0.72-1.2 0.095-1.958 0.225-1.979-0.24-3.6-0.574 0.786-1.613 1.107-2.16 1.92-0.512 0.112-0.457-0.343-0.479-0.72-1.083-0.043-1.003 1.078-1.92 1.2-0.057-1.017 0.7-1.22 0.96-1.92 0.614 0.025 1.144 0.136 1.439 0.48 0.502-0.298 0.902-0.698 1.2-1.2 0.041-0.601-0.368-0.751-0.72-0.96-0.558 0.607-2.677 2.519-3.12 0.96-0.614 1.146-1.28 2.24-2.16 3.12 1.085-0.501 1.031 0.978 2.641 0.48 0.04 1.171-0.845 0.296-1.2 0.72-0.011 0.41 0.178 0.622 0.479 0.72 1.437-0.644 2.04-2.12 4.08-2.16-0.267 0.933-1.378 1.022-2.16 1.44 0.703 1.081 1.477-0.165 2.641 0 0.23 1.19-1.518 0.403-1.92 0.96 0.036 0.444 0.812 0.147 0.96 0.48-0.564 0.956-1.994 1.046-2.641 1.92-0.499-0.141-0.775-0.504-1.199-0.72-0.674 0.384 0.337 1.081 0 1.92-0.87-0.01-0.487-1.273-0.961-1.68-0.622 0.203 0.462 1.053-0.239 1.44-0.844-1.04-1.21-2.865-0.24-3.84 0.175-0.655-0.477-0.483-0.48-0.96-1.777 0.831-2.235 4.306-2.159 6.96 0.131 4.616 2.788 8.21 2.64 13.68 0.234 0.246 0.475 0.486 0.72 0.72-0.87 0.303-2.17-1.024-2.399-2.16 0.43-0.03 0.506 0.294 0.96 0.24-0.9-5.966-3.657-11.298-2.16-18.24 1.47-1.422 4.542-3.219 3.12-6-1.098 0.323-1.404 2.513-2.88 1.68 0.188-0.931 0.675-1.565 1.68-1.68 1.125-1.354 1.988-2.972 3.6-3.84-0.059-0.261-0.477-0.163-0.479-0.48-0.826 0.374-1.286 2.123-2.4 1.44-0.743 1.76-3.209 2.999-5.04 2.88-0.155 1.125 0.314 2.874-0.24 3.6-1.513-1.046-0.487-4.468 0.48-5.28-0.575 0.567-1.482-0.209-2.64 0 0.952 1.121 1.251 3.417 0.479 4.56-1.915-1.552-1.517-4.196-1.92-6.96 1.192-0.266 1.25 1.456 0.96 1.92 0.502 0.506 0.902-0.316 1.2-0.72 0.654-0.175 0.483 0.477 0.96 0.48 0.755-0.409 0.854-0.561 0.96-1.2 0.638 0.402 1.365-0.461 1.44 0.72 0.489-0.071 0.47-0.649 0.96-0.72-0.271-0.45-0.931-0.51-1.2-0.96-1.126 0.582-2.529 0.701-3.601 0.72-0.173-0.733 0.246-0.875 0.24-1.44 1.714 0.678 1.337-0.917 2.88-0.96 0.206 0.766-0.378 0.742-0.479 1.2 1.441-0.054 2.534-1.549 3.84-0.96-0.577 1.091-1.559 1.64-0.72 2.64 1.711-0.478 3.322-1.542 4.8-0.96-0.094-0.694 0.582-2.438 0-2.64 0.03-0.53 1.02-0.102 1.44-0.24zm-6.96-2.4c1.115-0.235 1.449 0.311 2.16 0.48 0.287-0.807 1.228-1.226 2.16-0.72 0.036-0.596-0.124-0.996-0.479-1.2-1.15 0.759-2.92 0.111-3.84 1.44z"/>
	<path d="m92.16 26.88c0.412 0.948 0.516 2.205 1.68 2.4 0.943-0.897 0.029-3.651 1.68-3.84 0.213 1.014-0.245 1.355-0.72 1.68 0.215 0.425 0.974 0.306 0.72 1.2 0.244-0.156 0.248-0.552 0.72-0.48-0.293 1.152-0.769 2.838-0.479 3.84 0.682 0.042-0.291-1.57 0.72-1.2-0.241 4.006 0.571 7.171 1.44 11.76 0.272 1.436 0.938 3.226 1.68 4.08 0.524 0.604 1.537 0.412 1.68 1.44-1.448-0.232-2.77-0.59-3.36-1.68 0.449 0.191 0.879 0.401 1.44 0.48-2.872-2.408-5.542-5.018-8.16-7.68 0.591 2.128 2.128 3.312 2.64 5.52-2.302-1.854-1.899-4.958-4.56-6.48 1.6-1.518 2.792 1.274 4.08 2.16 0.138-2.46-1.226-5.492-1.2-8.64-1.981-1.938-2.351-5.489-4.32-7.44-2.158-0.242-3.817-0.983-5.52-1.68-0.688-2.271-2.685-3.235-3.12-5.76-0.219-0.657-0.841 0.426-1.2-0.24 0.009-0.791 0.683-0.917 1.44-0.96-0.409 1.289 0.827 0.934 1.68 0.96 0.237 0.958-0.717 0.723-0.48 1.68 1.231 2.542 3.12 5.389 6.72 4.8 0.8 0.72 1.827 1.213 2.64 1.92 0.319 4.161 3.242 5.718 3.12 10.32 0.326-0.074 0.199-0.601 0.24-0.96 0.467 1.685 1.452 4.897 0.48 6.48 1.089 1.151 2.096 2.384 3.36 3.36-0.452-3.055-3.554-6.595-3.12-10.56 0.8 0.88 0.726 2.634 0.96 4.08 0.518-0.932 0.167-1.958 0.48-2.64 0.234 2.806 0.654 5.426 1.68 7.44-0.06-2.662-1.312-6.207-1.2-9.84-0.542 0.179-0.094 1.346-0.24 1.92-0.5-1.403-0.855-3.771-0.24-5.52-0.203-0.341-1.237 0.507-1.44 0.96 0.309 1.265 0.221 2.532 0 3.36-1.371-0.169-0.715-3.507-1.92-5.04-0.726 0.363 0.199 1.053 0 1.68-0.848-1.108-1.483-3.589-1.2-5.04 0.356 0.443 0.46 1.14 0.48 1.92 0.214-0.148 0.429-0.29 0.48 0 0.687-2.609-1.304-4.614-2.88-5.76-0.564-2.442-1.483-5.653-0.72-8.64 0.864 2.211 0.394 4.333 0.72 6.24 0.464 2.71 2.706 3.85 3.84 6 0.198 0.678-0.338 0.622-0.24 1.2 0.265 1.015 1.186 1.374 1.2 2.64-1.309 0.268-0.83-1.25-1.68-1.44z"/>
	<path d="m149.04 18.48c-0.736 1.983-3.327 2.112-4.319 3.84 0.036 0.444 0.812 0.147 0.96 0.48 0.043 0.524-0.196 0.764-0.72 0.72 0.399 0.561-0.129 2.048 0.96 1.92 0.113 0.753-0.646 0.634-0.721 1.2 0.896 0.021 0.685 0.269 1.44 0 0.386-0.335 0.256-1.185 0.72-1.44 0.404 0.428 1.079 0.671 1.44 0 0.902 1.075-1.435 0.956-1.2 2.16-1.473-0.095-2.173 0.455-3.12-0.24 0.415-1.979-0.269-2.963-0.48-5.28 1.173 0.052 1.155-1.085 1.681-1.68 2.12 0.548 1.81-2.44 3.36-1.68z"/>
	<path d="m112.8 25.92c-0.018 0.703-0.087 1.353-0.96 1.2 0.031 0.591 0.036 1.156-0.24 1.44 0.847 0.464 1.073-0.112 1.92-0.24 0.175 0.655-0.477 0.483-0.48 0.96 0.782-0.232 1.343 1.001 2.4 1.2 0.021 0.341 0.04 0.68-0.24 0.72 0.17 0.63 1.127 0.474 1.44 0.96 2.752 4.416 1.924 10.941 4.8 15.12v1.92c-1.039-0.579-1.151-2.512-1.68-3.84-0.562-1.408-0.911-2.75-1.2-5.28-0.158-1.378-1.412-5.861-2.16-6.96-0.502-0.737-1.151-1.176-1.92-1.2-0.403 0.342 0.306 1.302-0.48 1.68-0.733 0.174-0.705-0.414-1.439-0.24-0.025 0.745 0.755 0.685 0.479 1.68-0.702-0.062-0.737 0.542-1.439 0.48-0.506-0.502 0.316-0.902 0.72-1.2-0.268-0.372-0.78-0.5-0.72-1.2 1.114-0.166 1.765-0.795 2.16-1.68-0.882-0.865-1.786 0.282-2.4 0.48-1.04-2.29-0.57-4.693 1.44-6z"/>
	<path d="m162.48 27.36c-0.088 1.112-0.57 1.83-1.44 2.16 0.5 0.3 1.013 0.588 1.44 0.96-0.205 0.675-0.682 1.078-1.68 0.96 0.3-1.676-0.49-3.878 1.68-4.08z"/>
	<path d="m138.24 34.8c-0.194-0.045-0.239-0.241-0.479-0.24-1.04 4.32-3.228 7.492-5.521 10.56-0.503 3.241-0.105 5.129 0 8.64 0.496 0.734 1.228-1.119 1.92-0.24 0.387 1.401-1.511 2.448-2.16 3.6 0.35 1.171 2.773 0.268 2.16 2.4-1.059-0.221-0.879-1.681-2.64-1.2-0.357-1.485-2.972-1.983-2.64-3.36 0.902 1.198 2.239 0.491 3.119-0.24-0.676-2.333-0.946-4.957-0.479-6.72 0.224-0.846-0.146-1.806 0-2.4 0.34-1.392 1.564-2.925 2.4-4.32 0.848-1.416 2.038-2.684 2.64-4.08 0.839-1.948 0.337-3.729 2.16-5.04-1.13 2.153 0.152 4.209 0.96 6.48 0.444 1.249 1.334 2.579 1.68 3.84 1.357 4.949-1.148 9.709 0.24 14.4 0.274 0.755-0.377 0.583-0.48 0.96-0.079 1.04 1.329 0.591 1.2 1.68-1.367-0.072-1.931-0.949-2.88-1.44-0.217 0.626 1.696 1.177 1.92 2.16-1.584-0.096-2.841-0.52-4.32-0.72 0.657-0.718 1.586 0.32 2.641 0-1.215-2.146-3.295-3.425-4.561-5.52 2.061-0.058 3.359 2.719 5.28 3.6 0.83-0.585 0.054-0.795 0-1.44-0.307-3.716 1.55-9.948 0.24-13.68-0.766-2.181-1.974-4.237-2.4-6v-1.68z"/>
	<path d="m147.36 55.2c0.894-0.014 0.692 1.068 0.72 1.92 0.242 0.722-0.534 0.425-0.96 0.48 0.591 1.401-0.602 1.785-0.96 2.88-1.051 0.303-2.309 0.303-3.359 0 0.497-0.703 1.096-1.304 1.92-1.68-0.906-3.87 1.137-9.524-0.721-13.68-0.021-1.719 1.415-2.646 1.921-3.84 0.775-1.833-0.008-3.891 1.199-5.76 3.312 1.049 2.102 6.063 2.4 9.6 0.173 2.044 1.095 4.126 1.2 6 0.149 2.675-1.26 5.71-0.721 7.92-1.237-0.876-0.847-2.805-0.72-4.08 0.135-1.347 0.771-2.602 0.72-3.84-0.035-0.861-0.561-1.595-0.72-2.4-0.794-4.019-0.136-8.06-0.96-11.76-0.703 0.176-1.032 0.728-1.439 1.2 0.455 2.564-0.729 3.752-1.681 5.28-0.721 1.159 0.184 2.718 0.24 4.56 0.016 0.504-0.269 1.008-0.24 1.44 0.216 3.202 0.179 5.794 0 8.88 0.854-0.027 0.873-0.888 1.92-0.72-0.05-0.927-0.01-1.768 0.24-2.4z"/>
	<path d="m136.08 77.52c-0.543 0.337-0.788 0.972-1.439 1.2-0.604-0.197-1.286-0.314-1.2-1.2 0.017-1.179 0.549 0.543 0.96-0.24 0.566-0.203-0.661-0.591-0.24-1.439h0.721c-0.82-0.592-0.034-1.361 0.72-1.681-0.074-0.325-0.601-0.199-0.96-0.239-0.851 0.026 0.51 0.793-0.24 0.72-1.74-0.312-0.156-2.639 1.44-1.92 0.338 0.702 1.251 0.828 0.96 2.16 0.541-0.179 0.094-1.347 0.239-1.92-0.343-0.697-1.397-0.683-1.68-1.44 0.521-0.76 1.234-1.325 1.44-2.4-2.144-1.425-5.001 0.305-6.721-0.96-1-0.12-1.059 0.702-2.159 0.48v-0.72c-0.864 0.336-1.809 0.591-2.16 1.439 1.509-0.04 2.841-0.597 3.359 0.72-0.48 1.279-1.359 2.16-3.359 1.921 0.033 0.446 0.157 0.802 0.479 0.96-0.485 0.51-0.985 0.487-2.16 0.72-0.244-0.315-0.235-0.885-0.479-1.2-3.275-1.048-3.314 3.103-0.72 2.88-0.61 1.422 1.688 2.013 1.199 3.36 0.982-0.025 0.508-1.508 0.721-1.681 0.818-0.018 0.71 0.89 0.72 1.681-0.214 0.187-0.542 0.258-0.96 0.24 0.184 0.696 1.138 0.622 0.96 1.68-0.993-1.247-3.295-1.186-4.08-2.64h0.96c-0.986-0.787-2.001 0.932-2.88-0.24v0.72c1.103-0.054 2.629 0.661 3.36 1.68-0.347 0.816-1.927-1.047-3.36-0.72 0.438 0.365 1.423 0.906 0.72 1.68 1.599-0.506 2.027 2.095 3.601 2.4-0.344 0.948-1.371-0.621-2.4-0.48 0.959 1.27 3.706 1.526 3.12 3.601-1.303 0.218-2 1.04-3.36 1.2 0.102-0.779 0.998-0.763 1.2-1.44-1.005 0.115-1.458 0.782-2.4 0.96 0.146-0.574 0.346-1.095 0.24-1.92-0.203-0.356-0.772-0.348-1.2-0.479-0.705 0.351 0.574 1.316-0.72 1.199-0.31-2.39 1.913-2.247 2.641-3.6-0.219-0.656-0.842 0.426-1.2-0.24-0.398-0.832 0.208-1.277-0.24-2.16-0.325 0.601-1.339 1.366-2.16 0.721-0.206-0.766 0.378-0.742 0.48-1.2 1.381 0.514 0.64 0.186 1.439-0.24-0.37-0.869-3.289-0.955-3.359 0.48-0.957-0.729-2.556 2.35-3.36 0.239 1.622 0.022 1.989-1.211 3.36-1.439 0.724-1.996 3.721-1.719 5.04-3.12 0.038-1.479-1.736-1.145-1.921-2.4-0.778-0.139-1.116 0.164-1.68 0.24 0.108 0.866 0.615 1.162 0.24 1.92-0.447 0.033-0.802 0.158-0.96 0.48-0.295-0.105-0.493-0.308-0.48-0.721-1.637 1.334-3.062 1.408-4.56 2.881 0.183-1.304-0.587-1.653-1.68-1.681 0.265-0.855 1.141-1.099 0.96-2.399-0.688 0.712-1.472-0.077-2.16 0.72 0.187 0.533 0.139 1.302 0.72 1.439-0.917 0.284-2.051 0.35-2.64 0.96 0.114-0.755-0.342-0.938-0.48-1.439-0.565-0.006-0.706 0.413-1.439 0.24 0.145-1.136 0.923-1.638 1.439-2.4-0.035-0.524-0.604-0.516-1.2-0.479 0.813-0.79-0.316-1.031-0.479-1.44-0.37-0.926 0.219-2.732-0.96-2.88-0.122-1.001 0.865-0.657 1.2-1.44 0.241-0.563-0.188-1.403 0-1.92 0.515-1.425 1.764-2.384 2.399-3.84 0.174-0.734-0.414-0.706-0.24-1.439 0.279 0.038 0.428-0.054 0.48-0.24 0.646 0.016 1.153 0.549 0.72 0.96 0.617-0.023 0.344-0.937 0.96-0.96-0.605 0.003-2.256-0.856-1.439-2.16-1.13-0.529-2.533-0.01-2.88 0.96-0.93-0.066-0.041-1.629-0.721-2.4-0.256 2.522-0.971 3.009-0.72 5.28 0.176 0.225 0.437 0.363 0.72 0.48-0.464 0.575-0.142 1.938-0.96 2.159-0.034-0.926 0.188-2.107-0.479-2.399-0.09 0.624-0.222 2.652-1.2 3.12v-2.4c-0.913-0.353-0.047 1.073-0.96 0.72 0.199-0.861-0.541-1.161 0-1.68-0.646-0.165-0.464 0.496-0.72 0.72-0.85-0.735-0.508-3.465 0.72-4.08-0.19-0.635-1.128 0.537-1.2-0.48-1.029 0.547-0.519 1.184-1.44 1.68 0.054 0.986 1.259 0.82 1.2 1.92-1.666 0.226-1.906-0.974-2.88-1.439-0.949 0.282 0.321 1.714-1.2 1.68-0.227-0.894-0.427-1.813-1.2-2.16 0.394-0.75 1.656-1.003 0.96-2.16 0.911 1.206 1.896 0.147 3.12-0.24-0.105-0.566 0.415-1.561 1.2-1.92-1.517-0.216-3.303-1.725-4.56-0.72-0.614-0.642 0.145-1.265 0-2.16 1.056 0.553 1.029-1.132 2.16-1.2-1.797-0.194-3.386 1.893-5.28 2.4-0.456-0.753 0.243-2.058 1.44-1.92-0.969-0.64-1.962 0.75-2.88 0.96 0.59 1.807-1.458 2.626-1.2 4.32 0.867 0.067 0.549-1.051 0.96-1.44 0.817-0.143 1.297-0.623 1.44-1.44 0.315 0.245 0.884 0.235 1.2 0.479 0.971 1.777-0.338 3.477-1.68 4.8-0.729-0.152-0.66-1.101-1.2-1.44-1.596 0.324-2.202 1.638-2.16 3.6-2.181 0.799-0.82 2.843-1.2 4.801-1.142 0.262-0.979-0.781-0.96-1.681-0.889-0.231-0.79-1.45-2.16-1.2-0.681-1.023 0.784-3.51-0.48-4.32-0.295 0.612-0.419 3.517 0 4.8-1.456-0.559-0.473-2.546-0.48-3.84-0.009-1.726-0.558-3.396-0.24-4.56 1.368-0.053 0.133 1.247 0.72 1.68 0.176-2.144 2.824-1.816 3.6-3.36 0.613 0.027 0.476 0.804 0.48 1.44 0.707-1.268 0.008-3.378 0.24-5.52 1.166-0.194 1.806-0.914 1.68-2.4h0.96c-0.303-0.321-0.721-0.471-0.24-0.96 0.7-0.067 0.825 0.058 0.48 0.48 1.068-0.292 2.459-0.261 3.84-0.24 1.787 1.542 7.062 1.399 8.16 4.08-1.981 0.419-4.204 0.596-5.76 1.44 0.076 0.799 1.138-0.722 0.96 0.48-0.958-0.237-0.723 0.717-1.68 0.48 2.023 0.881 6.156-1.289 8.641-0.72 0.489-0.071 0.47-0.649 0.96-0.72h9.84c1.459 1.101 3.562 1.557 5.04 2.64 0.768-0.784-0.134-1.935-0.721-2.16 0.493-1.107 1.64-1.561 2.881-1.92 0.754 1.326-0.365 2.608-1.44 2.88 0.235 1.115-0.312 1.449-0.48 2.16-3.28 0.48-7.957-0.438-9.119 2.16 0.916 0.923 0.997 2.682 1.199 4.32-0.318 0.241-0.893 0.227-0.96 0.72-0.037 1.157 1.117 1.124 0.721 2.641-0.766 0.205-0.742-0.378-1.2-0.48-0.225 0.176-0.363 0.437-0.48 0.72 0.193 0.204 0.988-0.016 1.44 0.48-0.549 0.577-0.041 1.451 0.24 1.92 0.947-0.252 0.815-1.584 1.92-1.68-0.569-1.76-0.161-3.748-0.48-5.28 1.809 0.441 3.191-0.528 3.12-2.64-0.486-0.921-0.985-0.898-2.16-0.72 1.057 0.223 1.874 0.686 1.681 2.16-0.655-0.175-0.483 0.478-0.96 0.48-0.663-0.137-1.347-0.254-1.2-1.2-0.575-0.095 0.133 1.093-0.721 0.72-0.509-0.61 0.158-2.398-0.96-2.4 0.785-0.973 2.622-0.358 3.841-0.48 1.099-0.11 3.325-0.212 4.56 0 0.275 0.755-0.377 0.583-0.48 0.96 0.456 1.849 0.28 4.839 0 6.72h-0.72c1.086 1.029 0.03 2.745 0.72 4.08-1.333 0.214-1.571-0.667-1.439-1.92-1.621-0.14-2.956 1.356-3.36 0-1.682-0.002-1.146 2.214-1.92 3.12-1.034-0.085-1.697-0.542-2.399-0.96-0.106-0.453 0.326-1.446-0.48-1.2-0.549 0.41 0.392 1.353 0.24 2.16 0.603 0.198 2.066-0.467 1.92 0.48h-2.16c1.201 0.719 1.123 2.717 3.12 2.64 0.031 1.071-0.528 1.552-0.96 2.16 1.131-0.07 1.521-1.889 2.88-0.96 0.652-0.22-0.64-0.446-0.24-1.2 0.83-0.807 2.465-0.553 3.36-0.72 0.39-0.57 0.466-1.454 0.72-2.16 0.766-0.363 3.66-2.037 3.84 0-1.094-0.493-2.713-0.19-3.359 0.479 0.449 0.457 0.026 0.604 0 1.2 1.367-0.475 5.124-0.634 5.76-2.64-0.204-0.356-0.604-0.517-1.2-0.48v-2.159c0.278-0.202 0.644-0.317 1.2-0.24-0.251-1.67-0.332-3.992 0.24-5.28 3.269 0.571 8.333-0.653 9.6 1.92 0.463-0.097 0.021-1.099 0.96-0.72 0.118-0.759-1.19-0.089-0.96-0.96 3.772-0.06 6.163 0.39 9.12 0.72 0.357 0.859-0.396 1.765-0.96 2.4 0.175 0.487 0.722 0.979 1.2 0.479 0.336-0.085 0.021-0.422-0.24-0.479 1.535-0.116 2.326-1.812 4.08-0.96 0.088 0.408-0.188 0.452-0.48 0.479 1.155 1.165 4.543 0.098 5.521 1.44 1.068 0.018 3.04-1.768 3.6 0-0.733 0.174-0.706-0.414-1.439-0.24-0.025 0.745 0.755 0.685 0.479 1.68-0.76 0.2-1.22 0.7-1.68 1.2 1.3 0.19 2.772 0.157 4.08 0.24 0.172 0.651-1.132-0.172-0.96 0.479 0.493 0.556 1.251-0.655 2.399-0.239-0.288-0.672-0.726-1.195-1.92-0.96-0.229-0.447 0.719-0.803 0-0.96 0.568-0.553 2.154-0.086 3.12-0.24-0.058 0.422-0.413 0.547-0.96 0.479 0.179 0.542 1.347 0.094 1.92 0.24-0.082-1.042-2.325-1.991-3.12-3.12 0.223 1.449-2.056-0.326-1.439-1.2-0.39-0.57-1.538-0.382-1.2-1.68-1.05 0.63-1.839 1.521-3.12 1.92-0.756-1.188 0.077-1.496 0.48-2.64-0.54-2.083-0.179-4.53 0-6.96 0.104-1.434 0.773-2.799 0.96-4.32 0.389-3.177-0.234-6.569 0-9.6 0.039-0.507-0.413-1.61 0.479-1.68 0.311 8.184-0.104 13.415-1.2 20.64 0.865-0.255 0.278-1.962 1.2-2.16 0.181 2.26-0.803 3.357-0.96 5.28 0.345 0.405 1.091-0.816 1.92-0.721 0.026-1.734-0.271-3.792 1.44-3.84-0.076 0.964-0.434 1.646-1.2 1.92 0.438 0.452 0.88 2.146 0.48 2.641 1.24 0.519 1.81 1.71 2.88 2.399-0.067-3.119 1.148-8.632 0.479-12.48 1.311 1.16 0.695 4.011 0.72 6 0.027 2.154 0.109 4.15-0.72 5.76 0.358 0.652 1.078-1.076 1.68-0.24 0.182 1.222-1.337 0.743-1.439 1.68 1.287 0.634 1.768 2.072 3.6 2.16 0.239 2.239-3.68 0.32-3.359 2.641h-0.96c0.198 0.678-0.339 0.621-0.24 1.199 0.5 0.301 1.012 0.588 1.439 0.96-0.085 1.595-0.018 3.343-0.72 4.32 0.735-0.162 3.563 0.22 2.4 1.92-0.819-0.061-1.153-0.606-2.16-0.479-0.545 0.255-0.092 1.509-0.24 2.16-1.327 0.127-1.173-1.228-1.92-1.681 0.531-0.876 0.239-1.645 0.48-2.399 0.26 0.059 0.162 0.477 0.479 0.479 0.707-0.492-0.184-1.396-0.479-1.68-0.469 0.103 0.393 0.686-0.721 0.479-0.223 1.169-0.125 2.953-1.68 3.36 0.46-1.127-0.655-0.22-0.72-0.24-0.975-0.304-1.194-1.062-2.16-1.68-0.032-0.768 0.236-1.837-0.72-1.68-0.907 0.098 0.384 1.66-0.96 1.68 0.106 0.854 0.972 0.947 1.439 1.439 0.206 0.767-0.378 0.743-0.479 1.2-0.579-0.461-0.953-1.127-1.44-1.68 0.588-2.062-0.426-4.255 2.16-4.32 0.467-0.492 0.749-1.171 1.68-1.2 1.312 0.449 1.771 1.75 1.92 3.36 1.11-0.456 0.272-0.653 0.24-1.68 0.583-1.166 1.581-2.41 1.2-3.84-1.303-0.263-0.688 1.393-2.16 0.96-0.326 0.074-0.199 0.601-0.24 0.96-1.614 0.174-1.416-1.464-1.92-2.4-0.51 0.45-0.005 1.915-0.72 2.16-0.193-0.127-0.39-0.25-0.72-0.24 0.179-1.184 0.179-1.456 0-2.64 0.753-0.267 0.634-0.112 1.199 0.24-0.09-0.917-0.338-0.93 0.48-1.2-1.393-0.626-3.042-0.353-4.561 0 0.457 1.248 1.871 0.863 2.641 0.24-0.091 0.788-0.494 1.266-0.96 1.68 0.157 0.719 0.513-0.229 0.96 0-0.046 1.152-1.818 1.039-0.96 2.399-0.42 0.621-2.061 0.021-1.681 1.44-0.38-0.02-0.915 0.115-0.96-0.24-0.419 0.221-0.529 0.751-0.479 1.44-1.225-0.345-1.025 0.734-1.68 0.96 0.134 0.346 0.374 0.586 0.72 0.72 0.443-0.036 0.147-0.812 0.479-0.96 0.869 0.179 1.243 0.996 2.16 0.48 0.354 1.474-1.21 1.029-1.92 1.439-0.174 0.734 0.414 0.706 0.24 1.44-1.196-0.191-1.414-0.138-2.16 0.479 0.363 0.339 0.758 1.166 0.24 1.681-0.99-0.131-1.542-0.698-2.16-1.2 0.101-1.1 1.977-0.424 1.92-1.681 0.557-0.076 0.922 0.039 1.2 0.24 0.012-0.812-0.559-1.041-0.96-1.439-0.717-0.054-0.816 0.886-1.44 0.239-0.109-0.749 0.513-0.767 1.2-0.72-0.322-0.871-0.279-2.623 1.2-2.399-0.003-0.478-0.655-0.306-0.48-0.96-1.028 0.855-1.965-0.567-3.359 0-0.102-0.502 0.164-0.636 0.239-0.961-1.347 0.016 0.282 1.757-0.239 1.681-0.842 0.544-1.401-0.899-1.44-1.92-1.851-0.312-0.844 1.74-1.2 2.399-1.429-0.355-1.948 0.134-3.12-0.479-0.213 1.467-0.937 2.423-0.96 4.08 0.494 0.626 1.285 0.955 1.681 1.68 0.776 0.297 0.184-0.776 0.96-0.479-0.043-0.678-1.141-0.3-0.96-1.2-0.23-0.87 1.036-0.244 1.2-0.721-0.077-0.563-0.743-0.537-0.96-0.96 0.124-0.915 0.855-1.224 1.92-1.199-0.003 0.637 0.09 1.37-0.24 1.68 0.339 0.806 2.162 0.496 1.439 1.68-1.057 0.178-0.982-0.776-1.68-0.96-0.438 0.628 0.143 1.114 0 1.44-0.069 0.158-0.498-0.11-0.479 0.24 0.097 1.912 3.372 3.547 1.68 4.319 0.613 0.187 0.91 0.689 0.72 1.681h-2.64c-0.35 0.883 1.694 2.557 1.439 3.359-1.199 0-0.699-1.701-1.68-1.92-0.325 0.074-0.199 0.601-0.24 0.96-0.929 0.104-0.854 0.263-1.439-0.24 0.214-0.825 0.584-1.496 0.96-2.159-0.175-0.546-0.723-0.719-1.2-0.961 0.448-0.671 1.069-1.171 1.2-2.159 0.906-0.106 1.127 0.473 1.68 0.72-0.173 0.787-1.654 0.266-1.68 1.2 0.461 1.137 1.208-0.406 2.399 0 0.419-0.361-0.245-1.036 0.48-1.44-1.48-1.64-3.52-2.722-5.52-3.84zm-24.72-23.04v0.72c0.376 0.306 1.586-0.01 1.44-0.96-0.59-0.032-1.16-0.036-1.44 0.24zm-9.36 2.64c0.945 0.384 0.084-1.037 0.721-0.96 0.523-0.153 0.764 0.68 0.72-0.24-0.005-0.425-1.132 0.382-1.44-0.24v1.44zm-12 0.48c0.548 0.52 1.498 0.087 1.44-0.72-0.849-0.129-1.236 0.203-1.44 0.72zm11.28 0.72c1.001 0.651 0.08 1.852 0.96 2.4-0.015-1.227 0.562-2.58-0.24-3.36 0.21 0.771-0.79 0.329-0.72 0.96zm8.16 5.76c-0.726-0.287 0.127-1.14 0.48-0.479 0.117-0.758-0.433-0.848-0.24-1.68 0.584-0.136 1.234-0.206 1.2-0.96-0.565 0.005-0.707-0.414-1.44-0.24-0.734 1.282-1.069 1.17-0.24 1.92h-0.96c0.03 0.704 0.87 1.834 1.2 1.439zm16.56 0c0.421-0.219 1.198-0.082 1.44-0.479-1.276-0.21 0.188-1.669-0.96-1.92-0.26 0.699-0.54 1.382-0.48 2.399zm3.12-0.72h-0.96c-0.075 2.197-1.062 1.995-1.439 3.84 1.157-0.362 2.088-0.952 2.88-1.68-1.4 0.76-0.84-1.733-0.48-2.16zm7.92 4.56c1.364-0.244 1.929 0.312 2.641 0.72 0.116-1.581 0.421-2.76 0-4.08-0.92 1.078-2.92 1.08-2.64 3.36zm-28.32-0.48c-0.356-0.283-1.072-0.208-0.96-0.96 0.743-0.057 0.932-0.668 1.439-0.96-1.479 0.005-2.186 0.391-3.6 0.72 0.845 0.827 1.188 0.987 0.96 1.92 0.863-0.323 1.751-0.811 2.16 0.24 0.004-0.396 0.665-0.134 0.72-0.479-0.282-0.038-0.682 0.041-0.72-0.24 0.306-0.334 1.176-0.104 1.2-0.72-0.379-0.022-0.188-0.612-0.721-0.48 0.07 0.546-0.06 0.901-0.48 0.959zm20.4 0.24c0.426 0.447 4.458 0.551 4.801 0-2.04 0.088-3.04-0.546-4.8 0zm15.12 2.16c1.113 0.406 1.327 1.713 2.641 1.92 0.188-0.167 0.534-1.34 0-1.44-0.062 0.338-0.526 0.273-0.721 0.48-0.536-0.664-1.249-1.151-0.96-2.641-0.418 0.019-0.746-0.054-0.96-0.239v1.92zm3.84 2.16c0.108-0.692 0.85-0.751 0.721-1.681-1.323-0.222-0.454-1.434-1.2-1.92-0.72 0.972 0.99 2.535 0.48 3.601zm-10.56-2.64c0.764-0.825 1.677 0.229 1.68 0.96 0.454 0.054 0.53-0.271 0.96-0.24 0.37-1.717-3.2-1.542-2.64-0.72zm13.2 1.2c-0.233-0.5-0.975-1.727-1.44-1.2 0.99-0.071 0.29 1.908 1.44 1.2zm-42 0.48c-0.313-1.033 0.681-0.759 0.96-1.199-0.349-0.371-1.229-0.212-1.92-0.24 0.21 0.588 0.22 1.383 0.96 1.439zm-2.64 0.24c0.494-0.806 0.496-0.169 1.2 0-0.054-0.453 0.271-0.529 0.24-0.96-1.036 0.338-1.582-0.316-2.4 0.24 0.46 0.098 0.19 0.931 0.96 0.72zm47.76 2.88c0.966-0.954 0.381-0.834 1.68-0.239 0.018-0.817-0.706-0.895-1.2-1.2-0.19 0.447-0.4 0.878-0.48 1.439zm-30.24 3.84c0.051-0.708-1.074-1.465-1.44-0.961 0.59 0.211 0.54 1.064 1.44 0.961z"/>
	<path d="m59.28 43.2c-0.8-0.706 0.796 0.092 0.48 0 1.303 0.382 3.365 0.958 5.52 1.2 3.789 0.426 8.721-0.56 12-0.24 1.064 0.104 2.342 0.328 2.64 1.44-0.869-0.411-1.961-0.599-3.36-0.48-0.504 0.067 0.348 0.641-0.24 0.96-4.398-1.766-12.446-0.247-17.04-2.88z"/>
	<path d="m73.92 49.44c1.083-0.677 1.689-1.831 3.12-2.16 0.179-0.739-0.659-0.461-0.48-1.2 2.869-0.069 5.365 0.235 6.72 1.68 1.344-0.349 1.498 0.172 2.4 0.72 0.333-0.496-0.613-1.379 0-2.4 1.026 0.021 1.758 0.481 2.64 0 0.087 0.807-1.04 0.4-1.44 0.72 0.31 0.49 1.164 0.437 0.96 1.44-0.278 0.202-0.643 0.317-1.2 0.24 0.148 1.688-0.437 2.148-0.48 3.12-2.299-0.677-3.718-0.897-5.52-0.72 0.722 0.441 0.662 0.753 1.68 0.48 0.211 0.771-0.791 0.329-0.72 0.96 1.265-0.015 1.762-0.798 3.12-0.72-0.432 0.806-1.39 0.695-0.48 1.68-0.213 0.187-0.542 0.258-0.96 0.24 0.284 0.646 1.251-0.001 1.68 0 0.006 1.606-2.282 0.918-3.36 1.44-0.325 0.795-0.944 1.296-1.92 1.44 0.231 0.594 0.921-0.331 1.68 0 0.269 0.756 0.022 0.543 0 1.44-0.98-0.117-1.459 1.061-2.16 0.48 0.42-0.821-0.105-1.487-0.24-2.4-0.644 0.517-0.196 1.552-0.24 2.4-0.161 3.098-0.468 6.856-0.24 9.84-0.896-0.855-0.356-0.236-1.92-0.239-0.709-3.275 0.625-7.633-0.24-11.041-0.424 1.656-0.996 3.164-2.16 4.081-0.911-0.049-0.831-1.09-1.2-1.681-1.233-0.047-1.719-0.841-2.4-1.44-0.595 0.605-1.549 0.851-2.4 1.2-0.229-1.611-0.672-3.008-0.72-4.8 0.422 0.058 0.547 0.413 0.48 0.96 0.972-1.065-0.708-1.521-0.96-2.16-0.739-0.179-0.461 0.659-1.2 0.48 0.017-0.817-0.706-0.894-1.2-1.2-0.707 1.093 0.555 1.635 0 2.88-0.359 0.281-0.981 0.298-1.2 0.72-0.527-0.691-0.746-2.456-2.16-1.44 0.264 1.421 0.893 2.769 2.4 1.68 2.656 1.299 2.226 7.098 0.72 9.36-1.49-0.496-3.098 0.016-4.08 0.72 0.559 0.829-0.062 1.525-0.24 2.641-0.147 0.925 0.475 2.738-0.72 2.64-0.271-1.838 0.036-2.949 0.48-4.56-1.158-0.358-0.499 1.102-1.44 0.96-0.653-1.37 1.092-2.213 1.44-3.36 3.792 0.381 3.862-3.642 3.6-6-2.229 0.511-1.209 5.484-3.84 4.8 0.236-1.364 1.458-1.742 1.68-3.12-0.623-0.528-0.647 1.583-2.16 0.96-0.139 0.779 0.164 1.117 0.24 1.681-0.506 0.213-0.709 0.73-1.44 0.72-0.113-0.754 0.646-0.634 0.72-1.2-0.087-1.146-2.117 0.723-1.68-1.2-0.763 0.549 0.31 1.271 0.24 1.92-1.619-0.381-0.401-3.599-2.16-3.84-0.686 0.323 0.639 0.613 0.48 1.2-0.412 0.25-0.297 1.405-0.96 0.72-0.088 0.729 0.782 0.498 1.2 0.721-0.878 0.984 1.215 2.534 1.2 2.64-0.042 0.292-0.939 1.327-1.68 1.44-0.425 0.064-0.51-0.317-0.96-0.24-0.431 0.073-0.827 0.472-1.2 0.479-0.683 0.015-2.119-0.648-3.36-0.72-1.442-0.083-2.53 0.321-2.88-0.96-0.071-0.951 0.293-1.467 0.72-1.92-0.058-0.619-0.413 0.329-0.96 0-0.297-0.776 0.776-0.184 0.48-0.96-0.175-0.595-0.722 0.792-1.2 0-0.451 0.424 0.286 0.7-0.24 1.2-0.791 0.632-0.994-0.645-1.2-0.721-0.563-0.207-1.952 0.363-1.2-0.479-0.716 0.084-1.461 0.139-1.68 0.72-0.696-0.79 1.112-1.117 1.44-1.68 0.375-2.504-1.146-5.865 0.48-7.44-0.933-1.227-2.126-2.194-2.64-3.84-0.602 0.198-0.759 0.841-1.2 1.2-0.871-0.125-1.49 0.017-1.92-0.96 0.868-0.958 1.721-3.166 3.12-2.16-0.033-0.927-0.937-0.983-1.92-0.96-0.733-0.787-0.976-2.064-1.92-2.64-1.492 0.269-1.771 1.749-2.16 3.12-1.231 0.769-2.277 1.723-3.36 2.64-0.179 0.739 0.828 0.292 0.48 1.2-0.678-0.272-2.57-0.336-1.92 0.72-1.068-0.132-1.276-1.125-1.2-2.4 2.328 0.087 2.588-1.892 3.84-2.88-2.893 1.346-4.571 3.791-7.68 4.32-0.4-0.477 0.022-0.305 0-0.96-0.546 0.333-0.93 0.83-1.44 1.2-0.991-0.298 0.091-0.698 0.24-1.2-0.193 0.127-0.39 0.25-0.72 0.24 0.641-1.09 2.398-0.509 2.88-2.16 0.578 0.098 0.522-0.438 1.2-0.24 0.581-0.378 1.061-0.858 1.44-1.44 0.431-0.031 0.506 0.293 0.96 0.24 0.677-0.043 0.299-1.141 1.2-0.96 0.042 0.843-0.811 0.79-0.96 1.44 0.661-0.459 1.221-1.019 1.68-1.68 1.403 0.689 2.383-0.492 2.88-1.44 5.011-1.093 11.015 0.009 16.08-0.72-2.666 1.139-5.887 1.126-9.36 0.96 2.264 1.505 5.114-0.105 8.64 0.24-1.259 1.221-2.865 2.095-3.84 3.6-1.214-0.175-1.421 0.658-2.4 0.72 1.163 1.196 0.708 4.895 0.24 5.76 0.496-0.287 1.32-1.478 1.2 0.24 0.598 0.095 0.71-1.499 0.24-1.68 0.916-1.004 1.953-1.887 3.6-2.16 0.824-1.656 1.961-2.999 4.32-3.12 0.087 0.807-1.04 0.4-1.44 0.72 0.231 0.594 0.921-0.331 1.68 0 0.759 0.119 0.089-1.191 0.96-0.96 0.1 1.219-0.939 1.3-1.92 1.44-1.033 0.944-2.563 1.643-2.88 2.64-1.275 0.085-1.742 0.978-2.64 1.44-0.175-0.655 0.477-0.483 0.48-0.96-0.73-0.01-0.933 0.507-1.44 0.72 0.356 0.284 0.374 0.907 0.72 1.2 1.128-0.473 1.425-1.775 2.88-1.92-0.074 0.566-0.833 0.447-0.72 1.2 1.841-1.199 4.008-2.072 6.24-2.88 0.893-0.093 0.444 1.156 1.2 1.2 0.267-0.611-0.439-1.517 0.24-2.4-0.766-0.143-0.742 0.451-1.2 0-0.053-1.547-0.607-2.593-1.2-3.6-0.742-0.022-0.715 0.725-0.72 1.44-1.037-0.643-2.197-1.162-2.4-2.64 1.569-0.377 2.562-0.488 4.08-0.48-0.187-0.693-1.161-0.599-1.68-0.96 0.03-0.53 1.018-0.102 1.44-0.24 5.677 2.792 13.571 3.149 20.4 3.6 0.573 1.253-0.347 2.347-1.2 3.358zm-32.64-3.12c-0.458-0.992-0.717-1.408-0.72-2.4h-1.2c0.385 1.056 0.855 2.025 1.92 2.4zm18.72 2.4c0.739-0.168 0.461-0.168 1.2 0-0.054-0.454 0.27-0.53 0.24-0.96-0.896-0.096-1.408 0.192-1.44 0.96zm1.44 3.12c0.729-0.15 2.067 0.308 2.4-0.24-0.496-0.145-0.909-0.371-0.72-1.2 1.577 0.074 3.422 0.716 2.88 2.16 1.625-0.295 1.239-2.601 3.36-2.4-0.067 0.547 0.058 0.902 0.48 0.96-0.118-0.774 1.12-1.418 0.48-1.92 0.074 0.291-0.693 0.827-0.72 0.24-0.221-1.021 1.584-0.016 1.44-0.96-2.167 0.693-2.71-0.734-5.04-0.48-1 1.8-3.547 2.053-4.56 3.84zm10.08 0.24c0.422 0.138 1.41-0.29 1.44 0.24-0.282 0.038-0.681-0.041-0.72 0.24 0.167 0.188 1.339 0.534 1.44 0-0.337-0.062-0.274-0.526-0.48-0.72 0.604-0.276 1.646-0.114 1.68-0.96-1.131 0.136-1.818 0.346-2.88 0 0.179 0.739-0.659 0.461-0.48 1.2zm7.2 0.48c0.096-1.583-1.182-0.298-1.44-1.44 0.012 0.948 0.492 1.428 1.44 1.44zm-28.32 0.96c-0.977 1.38 0.614 4.08-0.96 5.04-1.152-0.033-2.058 0.183-2.4 0.96 0.341 0.459 0.741 0.858 1.2 1.2 1.226-0.135 1.149-1.571 2.16-1.92 0.815-0.385 2.224-0.176 2.64-0.96-0.406-0.407-0.875-0.653-0.96-0.96-0.585-2.126 2.123-2.339 2.88-3.6 0.325 0.076 0.458 0.342 0.96 0.24 0.005-0.565-0.413-0.707-0.24-1.44-2.828-0.748-3.595 2.583-5.28 1.44zm9.36-0.24c-0.114 0.914 0.102 1.499 0.72 1.68-0.73-0.826 0.717-1.496 0-2.16-0.098 0.302-0.31 0.491-0.72 0.48zm11.28 1.92c0.92 1.08 1.958 2.042 3.12 2.88 0.562-0.559 0.531-1.709 1.2-2.16 0.036 0.525 0.605 0.515 1.2 0.48 0.945-0.904 2.538-0.92 2.88-1.44-1.52-1.258-3.687-1.954-5.52-0.72 0.291-0.073 0.828 0.694 0.24 0.72-1.108-0.412-1.11-1.93-2.4-2.16 0.03 1.07-0.592 1.488-0.72 2.4zm-16.32 3.12c0.716 0.484 1.184 1.216 1.92 1.681 0.353-1.894 0.501-4.746-0.72-5.761 0.281 2.041-0.276 3.244-1.2 4.08zm-10.8 0c0.307-0.427 0.462-2.239 0-2.64 0.253 1.087-1.064 2.221 0 2.64zm15.84 0.96c0.431-0.82 0.816-1.789 1.2-2.64 0.252-0.013 0.189-0.308-0.24-0.24-0.64 1.196-1.747 0.864-2.64 1.44 0.283 1.17-0.989 3.05 0.24 3.6 0.596-0.593 1.032-1.383 1.44-2.16zm-14.88 0.48c0.588-0.431 1.373-2.646 0-2.88-0.201 1.728-1.211 3 0.48 3.84 0.067-0.36 1.325-0.719 0.72-0.96 0.108 0.392-1.308 0.392-1.2 0z"/>
	<path d="m93.84 44.64c1.156 0.284 2.244 0.636 3.12 1.2-1.348 0.461-2.587-0.51-3.12-1.2z"/>
	<path d="m36.72 51.84c-0.502-0.68-1.062 1.471-1.68 0.72 0.183-1.017 1.119-1.281 1.68-1.92 0.574 0.16 1.871 0.83 1.2 1.44 0.219 0.652 0.446-0.64 1.2-0.24-0.904 0.937-1.722 1.958-2.16 3.36-0.326-0.075-0.199-0.601-0.24-0.96-0.151 0.133-0.725 0.976-0.96 0.24-1.274 0.406-0.836 2.524-2.4 2.64-0.022 0.742 0.725 0.715 1.44 0.72 0.417 0.624 0.84 1.24 1.44 1.68-0.21 2.931 1.676 3.765 1.68 6.48 0.803-0.684 1.945 0.465 2.64-0.24-0.058-0.619-0.413 0.329-0.96 0-1.065-0.998 0.05-2.561 0-4.08-0.013-0.395-0.481-0.805-0.48-1.2 0.004-1.654-0.238-5.915 1.68-5.52 0.452 2.554-0.072 5.583 0 7.92 0.411 0.05 0.622-0.409 0.72 0-0.213 0.667-0.892 0.868-0.96 1.68 0.455 0.048 0.81 1.399 0.24 1.68 0.155 0.37 1.09-0.49 1.44-0.72-1.676-0.116 0.243-1.837 1.44-1.92 0.275 0.755-0.377 0.583-0.48 0.96 0.805 0.005 1.6 0 1.44-0.96 0.61 0.029 0.931 0.35 0.96 0.96-0.678-0.198-0.622 0.338-1.2 0.24 0.085 0.314 0.423 0.377 0.48 0.72 0.462-0.098 0.19-0.931 0.96-0.72 0.585 0.563-0.268 0.537-0.48 0.96 1.194 1.421 3.537 0.726 5.28 1.2v0.96c-0.098 0.701-0.821 0.778-1.2 1.199-0.455 0.826-0.322 2.238-1.44 2.4 0.164-1.66-0.1-2.61 0.72-3.84-0.632-0.396-1.447 0.682-1.68 1.439-0.295-0.104-0.493-0.307-0.48-0.72-0.466 0.654-0.234 2.007-0.72 2.64-1.097-0.389-1.294-0.354-2.64-0.239-0.185 2.637 3.157 0.288 3.6 2.16 0.56-0.081 1.034-0.246 1.2-0.721 0.295 0.105 0.493 0.308 0.48 0.721 1.118-0.261 0.712-1.405 1.2-1.921 0.071-0.074 0.342 0.344 0.48 0.24 0.251-0.188 0.581-1.517 1.44-0.96 0.276 0.284 0.271 0.849 0.24 1.44 0.592-0.288 0.783-0.978 1.44-1.2-0.409-0.392-1.204-0.396-1.44-0.96 0.82-1.26 2.394-1.767 3.84-2.4 0.582 0.61-0.24 1.171-0.48 1.681 0.674 1.886 2.168 2.951 1.68 6 1.215-1.586 0.445-5.155 1.92-6.48-0.107 2.428-1.15 4.908-1.2 7.68-0.022 1.239 0.443 2.696 0.48 3.841 0.05 1.571 0.186 3.282-0.72 4.08 0.114-1.7-0.29-2.515 0-3.841-1.279 0.899-0.262 3.428-2.4 3.841 0.619 1.274-0.17 2.528-1.2 2.88-0.876 0.155-1.278-0.162-1.68-0.48-0.459 0.341-0.688 0.912-1.44 0.96-0.176-0.224-0.437-0.363-0.72-0.479 0.381-1.276 0.049-2.804-1.68-2.641 0.007 1.001 0.831 1.185 0.24 2.16-0.833 0.192-0.922-0.357-1.68-0.24-0.041 0.601 0.369 0.752 0.72 0.96-0.988 1.854-2.703 1.494-5.52 1.44 0.015-0.945 1.277-0.643 1.2-1.68-1.182-0.25-4.027-0.445-5.52 0.239-0.73-0.149-1.227-0.532-1.2-1.439-0.328 1.483-1.271 2.62-0.96 4.56-3.203 2.382-6.575 1.262-11.28 0.96-0.314-1.194 0.739-1.021 0.72-1.92 1.968 0.255 3.831-0.823 4.8 0.48 0.53-0.03 0.102-1.019 0.24-1.44-0.759-0.039-0.802 0.638-1.68 0.48 0.555-1.046 1.866-1.334 3.6-1.2 0.744-2.956 0.442-5.562 0.24-8.88-0.775 1.101 0.383 5.073-2.16 5.52 2.108-3.777 1.563-8.871 2.64-13.439-1.287 0.393-0.595 2.766-2.16 2.88 0.067-1.373 0.561-2.319 1.68-2.641-0.292-1.307 0.633-3.325 1.44-4.319 0.652 0.386 0.308 1.186 0.48 1.92 0.424 1.809 1.784 4.341 1.2 6.96-0.624-0.437-0.724 0.104-1.44-0.24-1.285 2.771 0.175 7.182-0.72 9.84 0.189 0.531 0.839 0.601 1.2 0.96 0.203-0.69-0.14-2.895 0-4.319 1.061 0.115-0.048 0.911 0.48 1.439 0.493-0.066 0.479-0.641 0.72-0.96 0.754 0.247-0.097 1.963 0.72 2.641 0.321-0.166-0.118-0.641 0.24-1.2 1.375-0.744 3.148-0.946 4.8-0.96 2.1-0.018 4.393 0.889 6 0-2.771-0.216-8.146-0.74-10.8-0.48-0.547-0.333-0.089-1.67-0.24-2.399 1.182 0.974 2.862-0.295 4.08-0.721-0.938-0.765-1.948 0.442-2.64 0.721-0.613 0.259-0.84-1.033-1.2-0.24-0.465-0.335-0.358-1.242-0.72-1.68-0.542 0.178-0.094 1.346-0.24 1.92-0.667-0.293-0.446-1.475-0.48-2.4 0.501 0.102 0.635-0.164 0.96-0.24-0.062-3.163-0.715-6.463-0.96-10.08-1.525-1.842-3.833-0.21-5.04 0.96-0.613 4.923-1.45 10.578-1.2 15.601-1.352 0.248-0.468 2.731-0.72 4.08-1.4-0.193-0.622-3.172-0.24-3.84-0.026-0.454-0.793-0.167-0.72-0.721-0.752 0.166-0.313 0.641-0.24 1.2-2.019-0.664-4.337 0.457-6.24-0.24 0.835-1.085 3.654-0.186 5.28-0.479 0.032-0.592 0.037-1.156-0.24-1.44-0.673 0.235 0.348 0.641-0.24 0.96-0.918 0.039-1.903 0.144-1.92-0.72-0.422 0.809-0.441 0.628-1.68 0.72-0.381-1.071-0.343-2.687-0.24-3.6 1.144 0.147 1.792 0.319 2.64-0.24-0.176-0.224-0.436-0.363-0.72-0.479-0.041-0.521 0.851-0.109 1.2-0.24 0.177-0.817-0.885-0.396-0.96-0.96 0.419-0.86 0.859-1.701 1.92-1.92-0.099-0.82-0.648-0.306-0.24-1.2-0.401 0.959-1.826 0.895-2.16 1.92-0.468-0.812-2.172-0.388-2.4-1.44-0.995 1.415-1.695 5.388-2.64 6.96-0.108 0.669 1.309-0.188 1.2 0.48-0.737 1.183-2.188 1.652-2.88 2.88 0.616 1.704 2.621 2.02 2.88 4.08-1.314-0.846-3.267-1.054-4.8-1.68-1.165 0.416-1.069 2.893-2.88 1.92-0.068-0.628 0.087-1.032 0.72-0.96-0.746-0.534-1.911-0.649-3.12-0.721-0.612 0.349-0.607 1.312-1.92 0.96 0.573-1.827 2.083-2.717 2.88-4.319-0.284-1.316-1.594-1.605-1.68-3.12 1.517-0.031 1.483 0.165 2.64 0.24 0.142-0.861-1.433-0.007-1.2-0.96 1.323 0.117 2.327 0.553 3.6 0.72-0.917-0.443-1.378-1.342-2.16-1.92 0.136-0.744-0.065-1.825 0.72-1.92 0.038 1.057-0.079 2.711 1.44 2.88 0.776 0.297 0.183-0.776 0.96-0.48 0.535-0.035-0.312-0.604 0-1.199 1.312 0.033 2.386 1.362 3.84 0.479-0.434-0.346-0.735-0.055-1.68-0.24 0.027-0.774-0.12-1.887-0.72-2.64 0.557-0.076 0.921 0.038 1.2 0.24-0.267-0.605-0.932-1.764 0.24-1.681-0.24-0.399-1.11-0.17-1.2-0.72-0.46 0.027 0.282 0.804 0 1.44h-1.68c1.12 0.572 0.51 1.396 1.2 2.399h-1.2c-0.451-0.457 0.142-0.434 0-1.2-0.462 0.098-0.19 0.931-0.96 0.721 0.083-0.558 0.155-1.125 0.96-0.96-0.886-0.478 0.174-1.81-0.72-1.92 0.832-0.401 0.328-0.896 1.92-0.721-0.255-0.544-1.508-0.091-2.16-0.239 0.653-1.731 3.529 0.641 5.04-0.48-0.401-0.64-2.213 0.133-2.64-0.479 0.625-0.672 2.345-0.175 3.84-0.48 0.619-0.058-0.33-0.413 0-0.96-0.853-0.373-0.145 0.815-0.72 0.72-1.554-0.077-1.717-0.62-3.12 0 0.067-0.388-0.227-0.413-0.24-0.72-2.415 0.101-3.416 0.107-5.28-0.48 0.537-0.742 1.588-0.972 2.64-1.199-0.635-1.352 0.303-3.002 0.48-4.32-0.572-0.177-2.188 0.182-2.16-1.2 1.021 0.261 1.809 0.822 2.4-0.24-0.336-0.698-0.827 0.426-1.44 0.24 0.688-1.653 1.75-1.597 3.12-1.2-1.499 1.382-1.359 4.401-2.16 6.48 1.934-0.651 4.979-1.253 5.52 1.2-1.014 0.054-1.55-0.37-2.4-0.48 0.885 0.853 1.979 1.018 3.12 0.48-0.052-1.309-1.206-1.515-1.68-2.4-0.026-0.938 2.666-1.657 2.4 0-0.563-0.076-0.901-0.379-1.68-0.24-0.067 0.548 0.058 0.902 0.48 0.96 0.302-0.347 2.68-0.474 4.32-0.239 1.33 0.189 4.118 0.449 5.04 0.96 1.129-1.471 0.091-3.707 0.72-5.761-0.64 0.64-1.217 1.343-2.16 1.681-1.614 0.042-1.282-2.968-1.2-3.84-0.455-0.35-1.142-1.188-0.48-1.92 0.419 0.221 0.53 0.75 0.48 1.439 0.494-0.466 1.464-0.455 1.2-1.68-0.204-0.705-0.604 0.312-1.2 0-0.077-0.557 0.039-0.922 0.24-1.2-0.627 0.067-1.201 0.081-0.96-0.72-0.36 0.521-0.316 1.444-1.44 1.2-0.103-1.098-0.365-2.035-0.24-3.36 0.458-0.451 0.434 0.142 1.2 0 0.224-0.176 0.363-0.437 0.48-0.72-0.011-0.373-1.704 0.518-1.44-0.72-0.704 0.204 0.143 0.773 0 1.2-0.885-0.155-1.259-0.821-1.44-1.68-1.716 0.284-2.362 1.637-3.36 2.64-0.172-1.037 0.609-3.023 2.16-3.12-2.724-0.432-4.541 0.747-7.44 0.72-1.999-1.441-4.01-2.87-5.52-4.8 1.421-1.379 3.057-2.543 4.08-4.32 3.333-0.273 6.119 1.25 8.88 1.2 2.343-0.042 4.534-1.438 7.2-1.2-1.5 2.66-4.807 3.513-7.44 5.04 0.91 0.771 2.165 1.195 2.16 2.88 0.521 0.041 0.109-0.851 0.24-1.2 1.132-0.665-0.379 1.006 0.48 0.96 0.556-0.03 0.026-1.292 0.24-1.44 0.314-0.219 0.154 0.902 0.24 0.96 0.016 0.01 0.432-1.983 0.96-1.2v1.92c0.393-0.862 1.072-0.236 0.96 0.72 1.324-0.196 1.108-1.931 2.64-1.92-0.707 1.449-2.834 2.226-2.4 4.08 0.046 0.272 0.241 0.133 0.24 0 0.664 1.761 1.88 2.784 0.96 5.04 0.756-0.444 1.048-1.352 1.44-2.16 0.438-0.603 1.553-0.527 1.44-1.68 0.739-0.179 0.461 0.659 1.2 0.48-0.192-0.815-0.559-1.456-1.44-0.96-0.115-0.755 0.342-0.938 0.48-1.44-0.107-0.692-1.033-0.567-1.2-1.2 0.638-1.282 2.408-1.433 4.08-1.68 0.375 0.745 0.666 1.574 1.44 1.92 0.82-0.465 0.822-1.744 1.68-2.166zm-17.52-4.32c0.774-0.186 1.418-0.502 1.92-0.96-0.773 0.053-1.016-0.425-1.92-0.24v1.2zm22.56 19.68c0.134-0.498 0.374-0.508 0.72-0.239-0.297-1.417 1.439-0.802 1.68-1.681-1.078 0.208-2.69 1.142-2.4 1.92zm-0.48 2.16c-0.276 0.284-0.271 0.849-0.24 1.44-0.355-0.125-0.605-0.355-0.96-0.48 0.047 0.688 0.03 1.31-0.72 1.2-0.037-0.597 0.377-0.743 0.48-1.2-0.634 0.405-1.578 0.502-1.92 1.2-0.388-0.412-1.004-0.596-1.92-0.48-0.037 1.317-0.026 2.586 0.24 3.601 0.528-0.352 1.789 0.028 1.92-0.72-0.524 0.043-0.764-0.197-0.72-0.721 0.325-0.075 0.458-0.342 0.96-0.239 0.1 1.42-0.148 3.188 0.96 3.6-0.151-0.524-0.621-1.237 0.24-2.16-0.283-0.037-0.681 0.041-0.72-0.24-0.432-1.974 2.455-1.329 2.4-0.479-0.006 0.091-3.71-0.225-0.72 0.24 0.689-0.336 1.219 0.653 1.44 0-1.42-0.709 0.943-0.064 0.72-0.96-1.323-0.365-4.435 0.081-6.48-0.721 1.389-1.549 4.289 0.986 5.28-0.72-0.336-0.883 0.951-1.906 0.24-2.64-0.262 0.476-1.55-0.031-1.92-0.24 0.025-0.855 1.211-0.549 1.2-1.44-0.743-0.24-0.932 1.277-1.44 0.48-0.013-0.44 1.23-0.812 0.48-1.2-0.407 1.101-0.596-0.192-1.44 0-0.059 1.019 0.627 1.292 0.48 2.4 0.754 0.475 1.664 0.261 2.16 0.479zm0.96-0.72c0.69-0.03 1.14-0.301 0.96-1.2h-0.72c0.198 0.679-0.338 0.622-0.24 1.2zm1.92-0.24c0.378 0.35 1.338-0.072 1.68-0.479-0.187-0.054-0.279-0.201-0.24-0.48-0.743 0.056-0.932 0.667-1.44 0.959zm-7.92 2.16c0.923-0.206 1.153-2.084 0.72-2.88-2.033 0.049-0.543 1.451-0.72 2.88zm-12.72-0.24c0.077-0.172-2.636-0.869-3.12-0.479 0.826 0.373 1.836 0.563 3.12 0.479zm-9.84 0.48c0.904 0.104 1.093-0.507 1.44-0.96-0.896-0.096-1.408 0.192-1.44 0.96zm15.12 0c-0.136-1.008-2.308-0.351-2.88-0.24-0.221-0.419-0.75-0.529-1.44-0.48 0.331 1.349 2.896 0.464 4.32 0.72zm-0.96 2.16c-0.556-0.077-0.921 0.038-1.2 0.239-0.327 1.077 0.966 1.165 1.44 0.721 0.072-0.473-0.324-0.477-0.48-0.721 0.557 0.077 0.921-0.038 1.2-0.239v-1.2c-0.977 0.261-1.657 0.428-0.96 1.2zm-6.96-0.24c0.353 0.538 0.335 2.691 0.96 2.16-0.339-0.572-0.298-1.292 0.24-1.681-0.27-0.051-0.374-0.266-0.48-0.479 0.186-0.054 0.473-0.007 0.48-0.24-0.678-0.198-0.622 0.338-1.2 0.24zm35.04 6.96c0.843 0.024 0.458-1.363 0.48-1.92 0.08-2.035-0.025-4.414-0.72-5.28-0.436 2.403 0.867 4.413 0.24 7.2zm-33.12-6.48c-0.043 1.29 1.794 0.639 1.92 0-0.7-0.867-0.903-0.023-1.92 0zm18.48 7.2c0.68-0.711 2.403 0.054 1.2 0.72 2.032-0.793 4.611 0.686 6 0.48-0.419-0.221-0.53-0.75-0.48-1.44 1.877-1.162 3.239-2.841 3.6-5.52-0.888 0.792-1.169 2.191-2.16 2.88-0.003-0.317-0.42-0.22-0.48-0.48 0.144-1.301 1.948-2.205 1.2-3.6-0.027 0.293-0.072 0.568-0.48 0.48 0.07-0.147 0.597-0.924 0-0.96-0.056 0.892-0.852 0.672-1.44 0.479-0.271 2.339 0.529 5.006-1.92 5.521-0.079 1.039 1.329 0.591 1.2 1.68-1.116-0.252-1.625-0.231-2.64 0.24 0.047-1.213-3.893-1.302-3.6-0.48zm-22.8-5.76c1.055 0.832-1.532 2.34 0 2.88-0.064-0.465 0.386-1.206 1.2-1.44-0.493-0.066-0.479-0.641-0.72-0.96 0.506-0.534 1.41-0.67 2.16-0.96-0.663 0.104-0.225-0.895-0.72-0.96-0.105 1.015-1.123 1.117-1.92 1.44zm27.12 2.16c1.291 0.171 1.326-0.914 1.68-1.681-1.12 0.001-1.68 0.561-1.68 1.681zm-19.92 0c-0.072 0.632 0.332 0.787 0.96 0.72-0.348-0.907 0.659-0.461 0.48-1.2-0.756-0.116-0.543 0.736-1.44 0.48zm16.32 1.68c1.17-0.104 3.193 0.862 3.84-0.24-1.078 0.118-1.798-0.121-2.64-0.239 0.258-0.915-0.443-2.096-0.96-1.44 0.815 0.6-0.658 0.922-0.24 1.919zm-3.6-1.68c-0.51-0.042-1.87-0.343-1.92 0.479 1.142 0.189 3.614 1.437 4.32 0.48-0.167-0.388-1.567-0.89-2.4-0.959zm-22.8 8.16c0.852-0.349 1.476-0.924 1.68-1.921-0.663-0.053-2.375 0.416-2.64-0.239 0.304-0.576 1.892 0.132 2.16-0.48-1.688-0.277-3.125-0.262-3.84 0 1.139 0.621 2.399 1.121 2.64 2.64zm-4.56-0.96c0.098-0.463 0.93-0.19 0.72-0.961-0.627 0.199-1.317-0.726-1.68 0 0.37 0.272 0.59 0.69 0.96 0.961zm0.48 1.2c0.354 0.927 1.221 1.339 1.44 2.4-1.521 0.241-1.208-1.353-2.4-1.44-0.103 0.458-0.686 0.435-0.48 1.2 0.899 0.301 2.174 0.226 2.88 0.72 0.554-1.046 1.747-1.453 2.16-2.64-0.427-1.018-1.364-2.79-2.64-2.16 0.859 0.876-1.172 0.896-0.96 1.92zm3.36 2.16c0.898-0.318 1.659 0.716 2.16 0-0.351-1.063-1.889-1.292-2.16 0z"/>
	<path d="m162.48 63.12c0.134-1.238 0.563 0.267 0.96 0.24 0.644-1.117 0.221-3.3 0.72-4.56 1.608 0.775 0.237 4.033 0.24 5.52 0.755 0.77 2.435 1.88 2.4 2.641-2.06-0.659-2.68-2.767-4.32-3.841z"/>
	<path d="m113.76 71.76c-0.388 0.067-0.413-0.228-0.721-0.24 0.411-1.154 1.633-1.794 0.96-3.36 0.458-0.102 0.435-0.686 1.2-0.479-0.003 0.477-0.654 0.305-0.479 0.96 1-0.28 1.212-1.348 2.399-1.44 0.738 0.375-0.417 0.836-0.72 0.96 0.549 0.447 1.58-0.106 2.4 0.48-0.77 0.797-2.647 0.337-2.641 2.399-1.16 0.793-1.84-0.538-2.4 0.72z"/>
	<path d="m100.8 76.08c-0.64-0.644-0.878 0.34-1.2 0.721 0.912-0.688 2.618-0.582 2.64-2.16 1.107 0.837-0.583 1.229-0.24 2.399h-0.72c-0.183 1.188-0.258 1.536 0.24 2.4-0.875-0.129-2.132 0.855-2.16-0.479-0.633 0.486 0.269 2.509-1.2 2.159 0.35-1.136-0.715-2.362 0.24-2.64-0.164-0.877-1.359-0.721-1.68-1.44 1.853 0.255 1.377-0.747 1.68-1.68-0.309-0.671-0.496 0.756-1.2 0.48-0.199-0.679 0.338-0.622 0.24-1.2-0.611-0.262-0.931 1.124-0.96 0 0.473-0.272 0.597-0.399 1.2-0.96 0.346 0.054 0.083 0.716 0.48 0.72-0.002-0.468 0.53-1.028 1.2-0.24-0.116-0.764-0.755-1.004-0.72-1.92 0.758-0.038 1.448-0.008 1.68 0.48 0.326-0.074 0.199-0.602 0.24-0.96 2.26 0.432-0.07 2.833 0.24 4.32z"/>
	<path d="m124.56 74.88c0.512-0.112 0.457 0.343 0.479 0.72 0.926-0.273 2.084-0.773 3.12-0.24 0.541 0.112 0.74-1.303 0.24-1.439 0.347-0.709 0.967 0.285 0.72 0.96 2.19-0.21 3.042-1.759 4.561-2.641-0.558 0.723-1.067 1.493-1.681 2.16 0.536 1.152 1.066 2.16 0.721 3.601 0.504 1.096 1.606 1.593 2.399 2.399 0.499-0.701 1.133-1.268 2.16-1.439-0.001 1.519-1.45 1.59-1.92 2.64-0.972-1.348-2.407-2.232-3.6-3.36-1.586-0.065-1.287 1.754-2.641 1.92-0.56-2.717-3.81-2.747-4.56-5.281z"/>
	<path d="m118.8 74.88c-0.093 0.812 1.062 0.377 0.72 1.439-1.415-0.139-1.218-0.591-2.4 0 0.62-0.419 0.84-1.237 1.68-1.439z"/>
	<path d="m173.76 91.68c0.192 0.127 0.39 0.25 0.72 0.24 0.491-3.343 2.307-7.859 0.72-11.04 0.452 0.587 1.568 0.512 2.16 0.96 1.177-0.264 0.576-2.305 0.72-3.601 0.998 0.812 0.688 2.973 0.24 4.08 0.968 3.457 1.638 7.932 0.24 11.521-0.315 0.244-0.885 0.235-1.2 0.479 0.812 1.456 1.206-0.599 2.16-0.479 0.562 0.683-0.134 1.643-0.48 2.16-1.265 0.145-1.901-0.339-2.159-1.2 0.002-0.878 0.474-1.286 0.96-1.681-0.592-1.141 0.537-1.806 0.96-2.64-0.066-3.294-0.303-6.417-1.92-8.16-0.747 0.054-0.406 1.194-0.48 1.92 0.104 0.356 0.308-0.095 0.72 0-0.688 2.553-2.181 5.443-1.68 8.4-0.643 0.944-1.623 1.181-1.44 2.399 0.262 0.606 0.607-1.346 1.2-0.479-0.174 0.546-0.214 1.226-0.479 1.68h-1.2c-0.76-1.953 0.85-2.31 0.24-4.559z"/>
	<path d="m102 82.56c-1.748-0.172-3-0.84-4.799-0.96 0.872-1.215 6.55 0.484 5.04 2.16-0.52 0.04-0.11-0.851-0.24-1.2z"/>
	<path d="m117.12 87.84c0.099 0.578-0.438 0.521-0.239 1.199 0.45-0.509 1.03-0.89 1.92-0.96 0.244 0.315 0.235 0.885 0.479 1.2 0.817 0.018 0.895-0.706 1.2-1.2 0.458 0.103 0.435 0.687 1.2 0.48-0.383 1.217-0.931 2.27-2.16 2.64-0.179 0.979 0.773 0.827 0.479 1.92-1.187 0.733-2.085 1.755-3.119 2.641-0.557 3.36 0.1 7.211-0.721 9.84-1.33-0.503-0.629-2.735-0.72-3.84-0.19-2.317 0.568-5.891 1.2-8.16-0.855 0.742-4.677 0.666-5.28-0.96-0.462 0.098-0.189 0.931-0.96 0.72-0.428-0.532-0.945-0.975-0.72-2.16 0.315 0.085 0.377 0.423 0.72 0.48-0.116-0.916 0.068-1.532 0.48-1.92 0.832-0.192 0.922 0.357 1.68 0.24-0.029 0.845-0.35 0.065-0.96 0.479v0.96c0.409 0.711 2.003 0.237 2.64 0.72 0.067-0.547-0.058-0.902-0.479-0.96 0.478-0.482 1.099-0.821 2.16-0.72 0.076 0.557-0.039 0.922-0.24 1.2 1.215 0.255 1.21-0.71 1.92-0.96-1.3-0.154-1.114-1.915-2.16-1.681-0.11-1.064 0.61-1.304 1.68-1.198z"/>
	<path d="m36.72 36.72c-0.199 0.678 0.338 0.622 0.24 1.2 1.35-0.244 2.715-1.293 3.36 0.24-0.498 1.608-3.101 2.195-5.28 2.88-1.354 0.425-2.465 1.216-4.08 1.2-0.481-0.005-0.751 0.017-0.72-0.479-2.356 2.012-4.975 2.294-9.12 2.4 0.104-0.295 0.307-0.493 0.72-0.48-2.403-0.897-4.548 0.265-6.72 0.48-0.9 0.089-1.805-0.197-2.4 0-2.253 0.746-2.62 3.746-4.56 3.6 0.973-1.347 2.093-2.547 2.88-4.08 9.127-1.322 16.482-3.045 24.48-5.28-0.776-2.995-0.583-5.487-1.68-8.16-0.041-0.601 0.369-0.751 0.72-0.96-0.468-0.651-1.854-0.386-1.92-1.44 1.489-1.311 2.908-2.691 4.08-4.32 1.791-0.154 2.435-0.035 4.08-0.24-4.785-4.853 3.647-8.426 5.76-12.48 0.567-1.089 0.507-2.328 1.2-3.36 0.427-0.133 0.997-0.123 1.2-0.48 0.108-0.668-1.308 0.188-1.2-0.48-0.209-0.77 0.369-0.75 0.72-0.96-0.275-0.772-0.567-1.671-0.24-2.4 2.174 0.19 1.445 2.58 1.68 4.08 0.321 2.052 1.058 4.075 1.68 5.76-0.849 0.729-0.679-1.098-1.44-1.2-0.091 1.77 1.231 2.128 1.68 3.36-2.173-0.646-3.404-4.461-2.4-6.72-0.176-0.224-0.437-0.363-0.72-0.48-0.753 0.288-0.889 1.191-0.96 2.16-0.945 3.393-6.083 5.806-5.28 10.32 0.213 1.2 1.575 1.517 1.2 2.88 4.115-0.802 8.645 0.883 9.12-3.12 0.213-1.796-0.751-2.527-0.96-4.56 2.098 0.521 1.861 4.458 1.44 6.72-1.918 1.362-5.164 1.396-8.4 1.44 2.023 1.265 5.282 0.659 7.44 0.24 2.379 1.221 5.212 1.988 7.68 3.12 0.681 0.041 0.468-0.812 1.44-0.48-0.302 1.138-1.406 1.474-1.92 2.4-0.168 2.872-0.876 5.204-1.68 7.44-1.231-0.779 0.028-2.16 0.24-3.12 0.429-1.938 0.612-4.248 1.2-6-2.302-0.978-5.099-1.461-7.44-2.4-4.318 0.041-8.477 0.724-13.44 0.72 0.361-1.959 3.375-1.266 5.52-1.44-0.663-1.381-4.32 0.628-6-0.24-0.619 0.821-0.867 2.013-2.4 1.92 0.098 0.462 0.93 0.189 0.72 0.96 0.843-0.198 0.536-1.544 1.92-1.2 0.592 3.746 1 8.152 0.96 11.28-0.352 0.557-0.761-0.469-0.72 0.48-1.045 0.244-1.104-0.498-1.68-0.721z"/>
	<path d="m95.28 14.88c2.088 1.068-0.126 3.116-0.96 4.08-1.12 2.059 2.466 4.374 0.48 5.76 0.041-1.481-0.529-2.351-0.96-3.36-0.581 0.394-1.166 0.611-1.92 0.24-0.358-1.398 0.768-1.312 0.96-2.16 0.095-0.575-1.093 0.133-0.72-0.72 1.763-0.557 2.819-1.821 3.12-3.84z"/>
	<path d="m106.8 13.68c-0.638 1.904-3.979 2.617-1.44 5.28 1.006 0.046 0.742-1.178 1.92-0.96-0.031 0.592-0.036 1.156 0.24 1.44h2.16c-0.434 1.189-2.233 0.361-3.36 0.48-0.383 0.322 0.989 0.917 0.96 1.68 0.701-1.219 2.563-1.277 4.08-1.68 0.471 0.837 1.224 1.168 2.4 0.72 0.181 1.803-2.062 1.154-2.4 0.24-0.431-0.03-0.506 0.294-0.96 0.24 0.186 1.174 1.779 0.94 1.92 2.16-0.358 0.281-0.981 0.299-1.2 0.72-0.295-0.105-0.492-0.307-0.479-0.72-0.928 0.032-0.947 0.974-1.68 1.2-0.729-0.151-0.944-0.816-1.681-0.96-0.313-1.034 0.682-0.759 0.96-1.2-0.536-1.157-2.549 0.466-3.359-0.72-0.906 1.734-2.384 2.897-4.32 3.6-1.594 8.071 1.084 14.035 1.92 21.36 2.418-0.462 3.409-2.351 5.52-3.12-0.105 0.854-0.972 0.948-1.439 1.44 0.19 0.845 1.128-0.727 1.2 0 0.098 0.579-0.438 0.522-0.24 1.2-2.154 0.327-3.633 4.806-5.76 2.16-0.206-0.766 0.378-0.742 0.479-1.2-1.547-6.885-3.794-14.244-2.4-22.08 2.236-1.364 4.457-2.744 5.52-5.28-1.235-1.255-1.616-1.893-1.439-4.56 0.84-0.596 1.68-1.196 2.88-1.44z"/>
	<path d="m143.04 18.72c-1.195 0.804-3.074 0.925-4.079 1.92 0.224 0.478 0.781 1.143 0.239 1.68 0.394 0.967 1.988 0.732 2.88 1.2 0.141 0.94-0.986 0.613-1.199 1.2-1.464-1.151-2.48 0.603-4.08 0.72-0.307-0.494-0.383-1.217-1.2-1.2 0.784-0.578 0.264-1.371 0.24-2.4 2.31-0.986 4.28-3.544 7.2-3.12z"/>
	<path d="m136.8 26.16c0.738 1.068-0.854 1.859-0.48 3.36 0.913 0.353 0.047-1.073 0.96-0.72 1.175 2.964-1.235 4.343-1.92 6.24-0.341 0.021-0.68 0.04-0.72-0.24-0.444 0.036-0.147 0.813-0.48 0.96 0.343 0.403 1.303-0.306 1.681 0.479 0.164-0.875-0.053-2.132 0.96-2.16-0.21 2.271-1.536 3.424-2.16 5.28-0.766 0.206-0.742-0.377-1.2-0.48 0.075-1.525 0.672-2.528 0.48-4.32 0.622-0.182 1.107-1.222 1.68-0.72 0.995-1.544 0.05-2.076 0.72-3.84-0.44 0.591-0.599 0.865-1.2 0.24 0.136 1.096-0.425 1.495-0.239 2.64-1.468-0.721 0.449-3.017-0.24-4.32 1.04-0.477 1.79-1.245 2.16-2.399z"/>
	<path d="m159.12 47.04c0.637 0.077-0.224-1.345 0.721-0.96 0.381 1.342 0.955 3.625 0.96 4.56-0.554 0.073-0.267-0.693-0.721-0.72-1.092 1.727-1.042 5.812-3.119 5.76 1.087-2.192 2.138-4.421 2.88-6.96 0.179-0.739-0.659-0.461-0.48-1.2-0.598 2.08-1.008 4.072-1.92 5.76-0.348 0.644-0.416 1.99-1.44 1.68 0.876-2.459 2.26-4.449 2.641-7.2 0.164-1.19-0.148-2.375 0-3.6 0.344-2.841 1.297-5.69 0.72-8.88-0.132-0.748-0.728-1.032-0.96-1.68-0.115-0.755 0.342-0.938 0.48-1.44-0.16-0.547-0.722 1.02-1.2 0.24-0.492-0.79 0.886-1.414 1.92-1.44 0.343 0.32 0.343 1.36 0 1.68 0.579 0.456 1.509 0.744 2.64 1.2-1.295 0.875-1.937 2.823-1.439 4.8 1.302-0.073 1.596 0.33 2.64 0 0.134-1.066-0.418-2.818 0.72-2.88 0.185 0.904-0.293 1.147-0.239 1.92 0.889-0.071 0.107-1.812 1.199-1.68-0.014 2.837-1.187 5.624-0.72 8.16 0.899-1.181 0.575-3.585 1.68-4.56-0.522 2.197-0.58 4.86-2.159 6-0.077-0.563-0.38-0.901-0.24-1.68-0.751 1.729-0.581 4.379-1.44 6-1.77-1.43-1.463-4.937-1.439-8.16 1.184 2.021 0.225 3.581 0.72 6 0.93-0.098 0.942-1.521 1.2-2.4 0.459-1.566 1.201-4.238 0.72-6.24-1.205 0.388-2.084-0.218-3.36 0.24-0.13 2.749-0.34 5.424-0.96 7.68z"/>
	<path d="m138.96 32.88c1.006 0.034 0.979 1.1 0.96 2.16 0.822-0.297 0.686-1.554 1.92-1.44 0.485 2.239 0.11 6.138 0.72 8.4-1.25 0.13-1.22-1.021-1.2-2.16-1.58-1.542-1.54-4.703-2.4-6.96z"/>
	<path d="m188.16 38.88c-0.021 1.018-0.841 1.239-1.439 1.68 0.409 0.471 1.684 0.076 1.92 0.72 0.241 1.921-1.441 1.919-1.2 3.84-0.401 0.424-0.804-0.213-1.68 0-0.3 1.804-0.526 2.919-1.44 4.56-0.522 0.938-2.664 3.175-4.32 3.36-0.508-0.241-1.438-0.694-0.72-1.44 0.776-0.297 0.184 0.776 0.96 0.48 3.513-1.688 4.801-5.6 4.8-10.8-0.163-1.036-1.414-0.985-1.199-2.4 0.591 0.529 1.57 0.669 1.68 1.68 0.704-0.016 0.892-0.549 1.2-0.96-0.062-0.499-1.055-0.065-1.2-0.48-0.259-1.218 0.443-1.477 0.96-1.92 0.87 0.25 0.75 1.492 1.68 1.68zm-2.16 5.52c1.021-0.5 1.525-1.515 1.681-2.88-0.31-0.331-1.043-0.237-1.681-0.24v3.12z"/>
	<path d="m96.96 68.4c0.193 0.203 0.988-0.017 1.44 0.48-0.462 1.884-3.182 0.233-5.04 0.479-0.989 0.131-3.412 0.588-4.56 0 0.293-0.889 0.894-0.952 2.16-1.68 0.516-0.297 0.919-1.419 1.68-0.72-0.046-0.194-0.241-0.239-0.24-0.48-0.208-0.709-0.359 0.557-0.96 0.24 0.036-1.244 0.174-2.386 0.48-3.36-1.225-0.265-0.215 1.705-1.44 1.44 0.145-0.575 0.345-1.095 0.24-1.92-1.206 0.168-1.116 0.149-2.4 0.239-0.171 1.062 0.726 2.301 0 3.12-0.874-0.485-0.489-2.231-0.72-3.359 1.606-0.554 2.995-1.325 3.36-3.12 0.807-0.247 0.374 0.746 0.48 1.2 0.703-0.216 0.737-0.216 1.44 0-0.474 1.354 1.013 0.747 1.44 1.199 0.099 0.578-0.438 0.522-0.24 1.2-0.307 0.333-1.133 0.147-1.44 0.48 0.079 0.879-0.267 1.333-0.48 1.92 0.398 0.383 0.74-1.328 2.16-0.721 0.264 1.395 1.704 0.665 2.16 2.16-0.016 1.121-0.549-0.28-0.96-0.239-0.093 1.877 1.178 0.849 1.92 0.479 0.067 0.55-0.058 0.905-0.48 0.963zm-5.76-6.24c0.117 0.774 1.482 0.813 1.68 0.24-0.478-0.225-1.143-0.781-1.68-0.24zm2.64 6.24c-0.357-1.157 1.102-0.498 0.96-1.439-0.739-0.179-0.461 0.658-1.2 0.479-0.054-0.187-0.007-0.474-0.24-0.479-0.547 0.542 0.163 1.054 0.48 1.439z"/>
	<path d="m185.52 71.04c-0.447-0.981 0.227-1.936-0.48-2.88h1.44c0.077-0.35 0.239-1.547 0.96-1.92 0.854 0.267 1.977 0.264 1.92 1.44-0.444 0.374-1.894 0.298-1.68-0.72-0.296 0.104-0.493 0.307-0.48 0.72 1.129 0.392 1.881 1.159 2.16 2.399-0.632 0.604-0.809-0.602-1.439-0.72-0.764 0.037-1.057 0.544-1.921 0.48-0.31 0.949 0.79 0.489 0.48 1.439-0.43 0.032-0.51-0.292-0.96-0.238z"/>
	<path d="m84.96 78.48c-0.805 0.635-3.791 0.439-5.76 0.24-0.568 0.312-0.463 1.297-0.72 1.92 1.194-0.684 3.952-0.956 5.28-0.72-0.1 1.18-0.725 1.836-1.44 2.399-1.059 0.1-1.058-0.862-1.92-0.96 0.039-0.281 0.438-0.202 0.72-0.24-0.066-0.494-0.894-0.226-0.96-0.72-0.46 0.027 0.282 0.804 0 1.44 0.062 0.498 1.054 0.065 1.2 0.479 0.04 0.68-1.479-0.199-1.44 0.48 1.225 0.657 2.715 0.334 4.08 0 0.169-1.031 0.091-2.31 1.44-2.16-0.316 0.739-0.248 1.636-0.48 2.399-0.124 0.406-0.578 0.543-0.72 0.961-0.106 0.312 0.37 1.675-0.479 1.439 0.175 0.799 0.997 0.78 0.479 1.68-1.248-0.246-2.112-0.246-3.36 0-0.314-0.917-0.507-0.887-1.68-1.199 0.414-0.643-0.169-0.913 0.48-1.44-0.553-1.055-1.219 0.671-1.68-0.478-3.541 1.527-7.038 0.902-11.04 2.399-0.628-0.731-0.165-2.556-1.44-2.64-0.728 0.506 0.65 1.873-0.72 1.92-0.252-1.561 0.409-1.698-0.24-3.12 0.759 0.039 0.802-0.638 1.68-0.48-0.179-0.541-1.346-0.094-1.92-0.239 0.208-1.312 2.755-0.285 3.6-0.96 0.188-1.951-1.557-2.339-3.6-2.641-0.764-0.33 0.848-0.237 1.2-0.239-0.021-0.779-1.431-0.17-1.2-1.2 2.885 0.412 6.004-1.257 8.16 0-0.035 0.524-0.604 0.515-1.2 0.479 0.221 0.419 0.75 0.53 1.44 0.48 0.002 1.702-0.41 2.175-0.48 3.359-1.375 0.064-1.659 1.222-3.36 0.96 0.588 0.452 1.996 0.085 2.4 0.721 0.044 0.523-0.196 0.764-0.72 0.72 1.981 0.373 5.353-0.651 7.44-0.24 0.521 0.041 0.109-0.851 0.24-1.2-1.876 0.373-4.308 0.634-6.24 0.48 0.04-0.931 1.024-0.409 1.44-0.48 1.454-0.246 3.146-0.759 4.8-0.72-0.048-0.831-1.416-0.344-0.96-1.68-1.537 0.369-2.878 0.566-4.08 0.72-0.56-0.96 0.48-1.519 0-2.399 0.642-0.238 1.265-0.495 2.16-0.48-0.501-0.716-1.262 0.318-2.16 0 0.113-0.754-0.646-0.634-0.72-1.2-0.166-0.646 0.496-0.464 0.72-0.72-0.062-0.498-1.055-0.065-1.2-0.48-0.028-0.245 1.035-0.485 0.24-0.72-0.04-0.521 0.852-0.108 1.2-0.24-1.036 0.662 0.373 0.48 0.96 0.24-1.639-0.361 1.089-1.229 1.68-0.72-0.076 1.673-1.58 1.227-2.64 1.439 1.32 1.116 3.799-0.431 4.56-1.439 0.736-0.002 1.649 1.053 0.96 1.68-0.798 0.165-0.387-0.496-0.24-0.72-0.849-0.129-1.237 0.203-1.44 0.72-0.179 0.739 0.659 0.461 0.48 1.2 0.757 0.117 0.847-0.433 1.68-0.24 0.731-0.293-0.351-0.916 0.24-1.2 1.679 0.399 1.968-0.591 2.4-1.439 1.779 0.051 1.904 0.892 3.36 0-0.211-0.493-1.132-1.501-1.44-0.48-0.084-1.115-1.887-0.513-2.64-0.96-0.652 0.694-2.31 1.439-3.6 0.721 0.759-1.844 2.235-0.353 3.6-1.2-1.768-1.331-6.092-2.648-8.4-1.2-0.664-0.217-1.13-0.63-1.44-1.2 1.619-0.764 3.037-0.214 4.8 0 0.281-0.039 0.203-0.438 0.24-0.72 0.666 0.131 0.679 0.778 1.2 0 0.751 1.22 2.543 1.998 4.08 2.399 0.59 0.155 1.717-0.597 1.68 0.48 0.649-0.977 1.348-0.594 3.12-0.48 2.964 0.191 7.035-0.527 8.64 0.48 1.204-0.156 1.556-1.165 2.88-1.2-0.704 1.696-0.82 3.98-3.36 3.84-0.45 1.341 0.236 4.601-1.2 4.801 0.85 0.141 0.956 1.93 0.48 2.64-1.13-0.67-3.223 0.199-4.08-0.24 0.694-1.599 3.165 0.028 3.6-1.68-0.203-0.518-1.053-0.388-1.44-0.72 0.084-0.315 0.422-0.378 0.48-0.721-1.314 0.255-2.315-0.747-1.68-1.68-0.655-0.175-0.483 0.477-0.96 0.479-0.255 0.896 0.9 0.381 0.72 1.2 0.112 0.748-0.604 0.858-0.96 0.48-0.106 0.453 0.326 1.446-0.48 1.2 0.293-1.573-0.49-2.07-1.2-2.641-0.575-0.095 0.133 1.094-0.72 0.721-0.152-0.809 0.31-2.229-0.24-2.641 0.023-0.616 0.937-0.343 0.96-0.96-1.312-1.39-3.252 0.312-3.12 1.92 0.688 0.767 2.529 3.517 0.48 4.08-0.523-0.502 0.12-0.685 0-1.439-0.392 0.175-1.044-0.477-0.48-0.48zm-0.24-2.64c-0.588-0.452-1.996-0.085-2.4-0.721-1.278 1.411 2.249 2.151 2.4 0.721zm-3.84-0.24c-0.057 0.343-0.395 0.404-0.48 0.72 0.99 0.05 0.422 0.483 1.44 0.72-0.417 0.703-1.081 1.159-2.4 0.961 0.861 1.258 2.884-0.256 4.08-0.24-0.377-0.023-0.832 0.032-0.72-0.48 0.758 0.038 1.449 0.009 1.68-0.479-1.562 0.722-2.741-0.48-3.6-1.202zm-6.96 4.08c1.511-0.01 2.83-0.21 3.6-0.96-1.375 0.145-2.337 0.703-3.6 0.96z"/>
	<path d="m104.4 78.48c0.275 0.755-0.377 0.583-0.479 0.96 0.703 0.676 1.031-0.378 1.439-0.72 1.543 0.349 3.908-0.998 4.8 0.479-1.389-0.352-3.78-0.053-5.04 0.48-0.169 1.209 0.886 1.195 0.96 2.16-1.718 0.896-2.604-1.145-4.08 0 0.219-1.328 0.651-2.037 0-3.12 0.46-0.425 1.58-0.174 2.4-0.239z"/>
	<path d="m136.32 85.68c0.012 1.132-0.774 1.466-0.72 2.64-0.842-0.357-1.362-1.038-1.2-2.399-0.385-0.793-0.896 0.033-1.439-0.48 0.48-1.865 2.46-0.236 3.36 0.239z"/>
	<path d="m128.64 88.08c0.315 0.085 0.377 0.423 0.72 0.48-0.009 1.602 0.611 3.037 0.72 4.8 0.051 0.811-0.353 1.844-0.239 2.641 0.165 1.171 1.229 2.196 1.439 3.359 0.128 0.708-0.23 1.303-0.24 2.16-0.021 1.951 0.792 3.872 0.24 5.52-1.765-0.851-0.575-2.861-0.479-4.319 0.043-0.657-0.379-1.071-0.48-1.681-0.289-1.736-0.304-3.762-1.439-5.279 0.038-0.281 0.438-0.203 0.72-0.24-1.159-0.281-0.993-1.888-1.2-3.12-0.208-0.866 0.559-0.176 0.72-0.72 0.26-0.86-0.71-2.407-0.48-3.601z"/>
</g>
<metadata><rdf:RDF><cc:Work><dc:format>image/svg+xml</dc:format><dc:type rdf:resource="http://purl.org/dc/dcmitype/StillImage"/><cc:license rdf:resource="http://creativecommons.org/licenses/publicdomain/"/><dc:publisher><cc:Agent rdf:about="http://openclipart.org/"><dc:title>Openclipart</dc:title></cc:Agent></dc:publisher><dc:title>flower market Marseilles</dc:title><dc:date>2008-02-26T02:07:39</dc:date><dc:description>Rambles&#xD;\non the RIVIERA&#xD;\nBeing some account of journeys made en automobile&#xD;\nAND THINGS SEEN IN THE FAIR LAND OF PROVENCE&#xD;\nBy Francis Miltoun</dc:description><dc:source>http://openclipart.org/detail/14907/flower-market-marseilles-by-johnny_automatic-14907</dc:source><dc:creator><cc:Agent><dc:title>johnny_automatic</dc:title></cc:Agent></dc:creator><dc:subject><rdf:Bag><rdf:li>clip art</rdf:li><rdf:li>clipart</rdf:li><rdf:li>externalsource</rdf:li><rdf:li>france</rdf:li><rdf:li>image</rdf:li><rdf:li>market</rdf:li><rdf:li>media</rdf:li><rdf:li>png</rdf:li><rdf:li>public domain</rdf:li><rdf:li>scene</rdf:li><rdf:li>scenery</rdf:li><rdf:li>svg</rdf:li></rdf:Bag></dc:subject></cc:Work><cc:License rdf:about="http://creativecommons.org/licenses/publicdomain/"><cc:permits rdf:resource="http://creativecommons.org/ns#Reproduction"/><cc:permits rdf:resource="http://creativecommons.org/ns#Distribution"/><cc:permits rdf:resource="http://creativecommons.org/ns#DerivativeWorks"/></cc:License></rdf:RDF></metadata></svg>
