{
    "sys_file_reference": {
        "sql": {
            "tx_mask_category_image": {
                "sys_file_reference": {
                    "tx_mask_category_image": "int(11) unsigned DEFAULT '0' NOT NULL"
                }
            }
        }
    },
    "tt_content": {
        "elements": {
            "category_teaser": {
                "color": "#000000",
                "columns": [
                    "tx_mask_category"
                ],
                "description": "",
                "icon": "",
                "key": "category_teaser",
                "label": "News Category Teaser",
                "labels": [
                    "Category"
                ],
                "shortLabel": ""
            }
        },
        "sql": {
            "tx_mask_category": {
                "tt_content": {
                    "tx_mask_category": "int(11) unsigned DEFAULT '0' NOT NULL"
                }
            }
        },
        "tca": {
            "tx_mask_category": {
                "config": {
                    "appearance": {
                        "enabledControls": {
                            "dragdrop": "1"
                        },
                        "levelLinksPosition": "top",
                        "newRecordLinkTitle": ""
                    },
                    "foreign_field": "parentid",
                    "foreign_sortby": "sorting",
                    "foreign_table": "--inlinetable--",
                    "foreign_table_field": "parenttable",
                    "maxitems": "",
                    "minitems": "",
                    "type": "inline"
                },
                "exclude": "1",
                "inlineIcon": "",
                "inlineLabel": "",
                "key": "category",
                "l10n_mode": ""
            }
        }
    },
    "tx_mask_category": {
        "sql": {
            "tx_mask_category_image": {
                "tx_mask_category": {
                    "tx_mask_category_image": "int(11) unsigned DEFAULT '0' NOT NULL"
                }
            },
            "tx_mask_category_page": {
                "tx_mask_category": {
                    "tx_mask_category_page": "tinytext"
                }
            },
            "tx_mask_category_title": {
                "tx_mask_category": {
                    "tx_mask_category_title": "tinytext"
                }
            }
        },
        "tca": {
            "tx_mask_category_image": {
                "config": {
                    "filter": [
                        {
                            "parameters": {
                                "allowedFileExtensions": ""
                            }
                        }
                    ],
                    "maxitems": "",
                    "minitems": ""
                },
                "exclude": "1",
                "inlineParent": "tx_mask_category",
                "key": "category_image",
                "l10n_mode": "",
                "label": "Category image",
                "options": "file",
                "order": 2
            },
            "tx_mask_category_page": {
                "config": {
                    "default": "",
                    "eval": "",
                    "fieldControl": {
                        "linkPopup": {
                            "options": {
                                "blindLinkOptions": "",
                                "title": "Link",
                                "windowOpenParameters": "height=300,width=500,status=0,menubar=0,scrollbars=1"
                            }
                        }
                    },
                    "placeholder": "",
                    "renderType": "inputLink",
                    "size": "",
                    "softref": "typolink",
                    "type": "input",
                    "wizards": {
                        "link": {
                            "icon": "actions-wizard-link",
                            "params": {
                                "allowedExtensions": ""
                            }
                        }
                    }
                },
                "exclude": "1",
                "inlineParent": "tx_mask_category",
                "key": "category_page",
                "l10n_mode": "",
                "label": "Category page",
                "order": 3
            },
            "tx_mask_category_title": {
                "config": {
                    "default": "",
                    "eval": "",
                    "is_in": "",
                    "max": "",
                    "placeholder": "",
                    "size": "",
                    "type": "input"
                },
                "exclude": "1",
                "inlineParent": "tx_mask_category",
                "key": "category_title",
                "l10n_mode": "",
                "label": "Category title",
                "order": 1
            }
        }
    }
}